2.22	8
2.225	8
2.23	8
2.235	8
2.24	8
2.245	8
2.25	8
2.255	8
2.26	8
2.265	8
2.27	8
2.275	8
2.28	8
2.285	8
2.29	8
2.295	8
2.3	8
2.305	8
2.31	8
2.315	8
2.32	8
2.325	8
2.33	8
2.335	8
2.34	8
2.345	8
2.35	8
2.355	8
2.36	8
2.365	8
2.37	8
2.375	8
2.38	8
2.385	8
2.39	8
2.395	8
2.4	8
2.405	8
2.41	8
2.415	7
2.42	7
2.425	7
2.43	7
2.435	6
2.44	6
2.445	6
2.45	6
2.455	6
2.46	6
2.465	6
2.47	5
2.475	5
2.48	5
2.485	4
2.49	4
2.495	4
2.5	4
2.505	4
2.51	4
2.515	3
2.52	3
2.525	2
2.53	2
2.535	2
2.54	2
2.545	2
2.55	1
2.555	1
2.56	0
2.565	0
2.57	0
2.575	0
2.58	0
2.585	-1
2.59	-1
2.595	-2
2.6	-2
2.605	-2
2.61	-2
2.615	-2
2.62	-3
2.625	-3
2.63	-4
2.635	-4
2.64	-4
2.645	-4
2.65	-4
2.655	-5
2.66	-5
2.665	-6
2.67	-6
2.675	-6
2.68	-6
2.685	-6
2.69	-6
2.695	-6
2.7	-7
2.705	-7
2.71	-7
2.715	-8
2.72	-8
2.725	-8
2.73	-8
2.735	-8
2.74	-8
2.745	-8
2.75	-8
2.755	-8
2.76	-8
2.765	-8
2.77	-8
2.775	-8
2.78	-8
2.785	-8
2.79	-8
2.795	-8
2.8	-8
2.805	-8
2.81	-8
2.815	-8
2.82	-8
2.825	-8
2.83	-8
2.835	-8
2.84	-8
2.845	-8
2.85	-8
2.855	-7
2.86	-7
2.865	-7
2.87	-6
2.875	-6
2.88	-6
2.885	-6
2.89	-6
2.895	-6
2.9	-5
2.905	-5
2.91	-4
2.915	-4
2.92	-4
2.925	-4
2.93	-3
2.935	-2
2.94	-2
2.945	-2
2.95	-2
2.955	-1
2.96	0
2.965	0
2.97	0
2.975	0
2.98	1
2.985	2
2.99	2
2.995	2
3	3
3.005	4
3.01	4
3.015	4
3.02	5
3.025	5
3.03	6
3.035	6
3.04	6
3.045	7
3.05	8
3.055	8
3.06	8
3.065	9
3.07	10
3.075	10
3.08	10
3.085	11
3.09	12
3.095	12
3.1	12
3.105	13
3.11	14
3.115	14
3.12	14
3.125	14
3.13	15
3.135	16
3.14	16
3.145	16
3.15	16
3.155	17
3.16	17
3.165	18
3.17	18
3.175	18
3.18	18
3.185	18
3.19	19
3.195	19
3.2	19
3.205	20
3.21	20
3.215	20
3.22	20
3.225	20
3.23	20
3.235	20
3.24	20
3.245	20
3.25	20
3.255	20
3.26	20
3.265	20
3.27	20
3.275	20
3.28	20
3.285	20
3.29	20
3.295	20
3.3	20
3.305	20
3.31	20
3.315	19
3.32	19
3.325	19
3.33	18
3.335	18
3.34	18
3.345	18
3.35	17
3.355	17
3.36	16
3.365	16
3.37	16
3.375	16
3.38	15
3.385	14
3.39	14
3.395	14
3.4	13
3.405	12
3.41	12
3.415	11
3.42	10
3.425	10
3.43	10
3.435	9
3.44	8
3.445	8
3.45	7
3.455	6
3.46	6
3.465	5
3.47	4
3.475	4
3.48	3
3.485	2
3.49	2
3.495	2
3.5	0
3.505	0
3.51	-1
3.515	-2
3.52	-2
3.525	-3
3.53	-4
3.535	-4
3.54	-5
3.545	-6
3.55	-6
3.555	-7
3.56	-8
3.565	-8
3.57	-9
3.575	-10
3.58	-10
3.585	-10
3.59	-11
3.595	-12
3.6	-12
3.605	-13
3.61	-14
3.615	-14
3.62	-14
3.625	-15
3.63	-15
3.635	-16
3.64	-16
3.645	-16
3.65	-17
3.655	-18
3.66	-18
3.665	-18
3.67	-18
3.675	-18
3.68	-19
3.685	-19
3.69	-20
3.695	-20
3.7	-20
3.705	-20
3.71	-20
3.715	-20
3.72	-20
3.725	-20
3.73	-20
3.735	-20
3.74	-20
3.745	-20
3.75	-20
3.755	-20
3.76	-20
3.765	-20
3.77	-20
3.775	-19
3.78	-19
3.785	-18
3.79	-18
3.795	-18
3.8	-18
3.805	-18
3.81	-17
3.815	-16
3.82	-16
3.825	-16
3.83	-16
3.835	-15
3.84	-14
3.845	-14
3.85	-13
3.855	-12
3.86	-12
3.865	-12
3.87	-10
3.875	-10
3.88	-9
3.885	-8
3.89	-8
3.895	-7
3.9	-6
3.905	-6
3.91	-5
3.915	-4
3.92	-4
3.925	-2
3.93	-2
3.935	-1
3.94	0
3.945	0
3.95	2
3.955	2
3.96	4
3.965	4
3.97	5
3.975	6
3.98	6
3.985	8
3.99	8
3.995	9
4	10
4.005	11
4.01	12
4.015	12
4.02	14
4.025	14
4.03	15
4.035	16
4.04	17
4.045	18
4.05	18
4.055	19
4.06	20
4.065	20
4.07	21
4.075	22
4.08	22
4.085	23
4.09	24
4.095	24
4.1	25
4.105	26
4.11	26
4.115	27
4.12	28
4.125	28
4.13	28
4.135	28
4.14	29
4.145	30
4.15	30
4.155	30
4.16	30
4.165	30
4.17	31
4.175	31
4.18	31
4.185	32
4.19	32
4.195	32
4.2	32
4.205	32
4.21	32
4.215	32
4.22	32
4.225	32
4.23	32
4.235	31
4.24	31
4.245	31
4.25	30
4.255	30
4.26	30
4.265	30
4.27	29
4.275	29
4.28	28
4.285	28
4.29	28
4.295	27
4.3	26
4.305	26
4.31	25
4.315	24
4.32	24
4.325	23
4.33	22
4.335	22
4.34	21
4.345	20
4.35	19
4.355	18
4.36	18
4.365	16
4.37	16
4.375	15
4.38	14
4.385	13
4.39	12
4.395	11
4.4	10
4.405	9
4.41	8
4.415	7
4.42	6
4.425	5
4.43	4
4.435	3
4.44	2
4.445	1
4.45	0
4.455	-1
4.46	-2
4.465	-3
4.47	-4
4.475	-5
4.48	-6
4.485	-7
4.49	-8
4.495	-9
4.5	-10
4.505	-11
4.51	-12
4.515	-13
4.52	-14
4.525	-15
4.53	-16
4.535	-16
4.54	-18
4.545	-18
4.55	-19
4.555	-20
4.56	-20
4.565	-22
4.57	-22
4.575	-23
4.58	-24
4.585	-24
4.59	-25
4.595	-26
4.6	-26
4.605	-26
4.61	-27
4.615	-28
4.62	-28
4.625	-28
4.63	-29
4.635	-29
4.64	-30
4.645	-30
4.65	-30
4.655	-30
4.66	-30
4.665	-30
4.67	-30
4.675	-30
4.68	-30
4.685	-30
4.69	-30
4.695	-30
4.7	-30
4.705	-30
4.71	-30
4.715	-30
4.72	-30
4.725	-29
4.73	-29
4.735	-28
4.74	-28
4.745	-28
4.75	-27
4.755	-27
4.76	-26
4.765	-26
4.77	-25
4.775	-24
4.78	-24
4.785	-23
4.79	-22
4.795	-22
4.8	-20
4.805	-20
4.81	-19
4.815	-18
4.82	-17
4.825	-16
4.83	-15
4.835	-14
4.84	-13
4.845	-12
4.85	-11
4.855	-10
4.86	-9
4.865	-8
4.87	-7
4.875	-6
4.88	-4
4.885	-4
4.89	-2
4.895	-1
4.9	0
4.905	2
4.91	2
4.915	4
4.92	5
4.925	6
4.93	7
4.935	8
4.94	10
4.945	11
4.95	12
4.955	13
4.96	14
4.965	16
4.97	16
4.975	18
4.98	19
4.985	20
4.99	21
4.995	22
5	23
5.005	24
5.01	25
5.015	26
5.02	27
5.025	28
5.03	29
5.035	30
5.04	31
5.045	32
5.05	32
5.055	33
5.06	34
5.065	35
5.07	36
5.075	36
5.08	36
5.085	38
5.09	38
5.095	38
5.1	39
5.105	39
5.11	40
5.115	40
5.12	40
5.125	40
5.13	41
5.135	41
5.14	41
5.145	42
5.15	42
5.155	42
5.16	42
5.165	42
5.17	42
5.175	41
5.18	41
5.185	41
5.19	40
5.195	40
5.2	40
5.205	40
5.21	39
5.215	38
5.22	38
5.225	38
5.23	37
5.235	36
5.24	36
5.245	35
5.25	34
5.255	34
5.26	32
5.265	32
5.27	31
5.275	30
5.28	29
5.285	28
5.29	27
5.295	26
5.3	25
5.305	24
5.31	23
5.315	22
5.32	20
5.325	20
5.33	18
5.335	17
5.34	16
5.345	14
5.35	14
5.355	12
5.36	11
5.365	10
5.37	8
5.375	7
5.38	6
5.385	4
5.39	3
5.395	2
5.4	0
5.405	-1
5.41	-2
5.415	-4
5.42	-5
5.425	-6
5.43	-8
5.435	-9
5.44	-10
5.445	-12
5.45	-13
5.455	-14
5.46	-16
5.465	-16
5.47	-18
5.475	-19
5.48	-20
5.485	-22
5.49	-22
5.495	-24
5.5	-24
5.505	-26
5.51	-26
5.515	-28
5.52	-28
5.525	-30
5.53	-30
5.535	-31
5.54	-32
5.545	-33
5.55	-34
5.555	-34
5.56	-35
5.565	-36
5.57	-36
5.575	-36
5.58	-37
5.585	-38
5.59	-38
5.595	-38
5.6	-38
5.605	-39
5.61	-39
5.615	-39
5.62	-40
5.625	-40
5.63	-40
5.635	-40
5.64	-40
5.645	-40
5.65	-39
5.655	-39
5.66	-39
5.665	-38
5.67	-38
5.675	-38
5.68	-38
5.685	-37
5.69	-36
5.695	-36
5.7	-35
5.705	-34
5.71	-34
5.715	-33
5.72	-32
5.725	-32
5.73	-31
5.735	-30
5.74	-29
5.745	-28
5.75	-27
5.755	-26
5.76	-25
5.765	-24
5.77	-23
5.775	-22
5.78	-20
5.785	-19
5.79	-18
5.795	-17
5.8	-16
5.805	-14
5.81	-13
5.815	-12
5.82	-10
5.825	-8
5.83	-7
5.835	-6
5.84	-4
5.845	-3
5.85	-2
5.855	0
5.86	2
5.865	3
5.87	4
5.875	6
5.88	7
5.885	8
5.89	10
5.895	12
5.9	13
5.905	14
5.91	16
5.915	18
5.92	19
5.925	20
5.93	22
5.935	23
5.94	24
5.945	26
5.95	27
5.955	28
5.96	30
5.965	30
5.97	32
5.975	33
5.98	34
5.985	35
5.99	36
5.995	37
6	38
6.005	39
6.01	40
6.015	41
6.02	42
6.025	42
6.03	44
6.035	44
6.04	44
6.045	46
6.05	46
6.055	46
6.06	47
6.065	48
6.07	48
6.075	48
6.08	48
6.085	48
6.09	49
6.095	49
6.1	49
6.105	49
6.11	49
6.115	49
6.12	49
6.125	49
6.13	49
6.135	48
6.14	48
6.145	48
6.15	48
6.155	47
6.16	46
6.165	46
6.17	46
6.175	44
6.18	44
6.185	43
6.19	42
6.195	42
6.2	41
6.205	40
6.21	39
6.215	38
6.22	37
6.225	36
6.23	34
6.235	34
6.24	32
6.245	31
6.25	30
6.255	29
6.26	28
6.265	26
6.27	25
6.275	24
6.28	22
6.285	20
6.29	19
6.295	18
6.3	16
6.305	14
6.31	13
6.315	12
6.32	10
6.325	8
6.33	7
6.335	5
6.34	4
6.345	2
6.35	0
6.355	-1
6.36	-2
6.365	-4
6.37	-6
6.375	-7
6.38	-9
6.385	-10
6.39	-12
6.395	-13
6.4	-15
6.405	-16
6.41	-18
6.415	-20
6.42	-21
6.425	-22
6.43	-24
6.435	-25
6.44	-26
6.445	-28
6.45	-28
6.455	-30
6.46	-31
6.465	-32
6.47	-33
6.475	-34
6.48	-36
6.485	-36
6.49	-37
6.495	-38
6.5	-39
6.505	-40
6.51	-40
6.515	-42
6.52	-42
6.525	-42
6.53	-43
6.535	-44
6.54	-44
6.545	-44
6.55	-45
6.555	-46
6.56	-46
6.565	-46
6.57	-46
6.575	-46
6.58	-46
6.585	-46
6.59	-46
6.595	-46
6.6	-46
6.605	-46
6.61	-46
6.615	-45
6.62	-45
6.625	-44
6.63	-44
6.635	-44
6.64	-43
6.645	-42
6.65	-42
6.655	-41
6.66	-40
6.665	-39
6.67	-38
6.675	-38
6.68	-36
6.685	-36
6.69	-34
6.695	-34
6.7	-32
6.705	-31
6.71	-30
6.715	-28
6.72	-28
6.725	-26
6.73	-24
6.735	-23
6.74	-22
6.745	-20
6.75	-19
6.755	-18
6.76	-16
6.765	-14
6.77	-13
6.775	-11
6.78	-10
6.785	-8
6.79	-6
6.795	-5
6.8	-4
6.805	-2
6.81	0
6.815	2
6.82	4
6.825	5
6.83	7
6.835	8
6.84	10
6.845	12
6.85	14
6.855	15
6.86	16
6.865	18
6.87	20
6.875	22
6.88	23
6.885	24
6.89	26
6.895	28
6.9	29
6.905	30
6.91	32
6.915	34
6.92	34
6.925	36
6.93	37
6.935	38
6.94	40
6.945	41
6.95	42
6.955	43
6.96	44
6.965	45
6.97	46
6.975	47
6.98	48
6.985	48
6.99	50
6.995	50
7	51
7.005	52
7.01	52
7.015	52
7.02	53
7.025	54
7.03	54
7.035	54
7.04	54
7.045	54
7.05	54
7.055	55
7.06	55
7.065	55
7.07	54
7.075	54
7.08	54
7.085	54
7.09	54
7.095	54
7.1	53
7.105	52
7.11	52
7.115	51
7.12	50
7.125	50
7.13	49
7.135	48
7.14	48
7.145	46
7.15	46
7.155	44
7.16	44
7.165	42
7.17	42
7.175	40
7.18	39
7.185	38
7.19	36
7.195	35
7.2	34
7.205	32
7.21	31
7.215	30
7.22	28
7.225	26
7.23	25
7.235	24
7.24	22
7.245	20
7.25	18
7.255	17
7.26	15
7.265	14
7.27	12
7.275	10
7.28	8
7.285	6
7.29	5
7.295	3
7.3	2
7.305	0
7.31	-2
7.315	-4
7.32	-6
7.325	-8
7.33	-9
7.335	-11
7.34	-12
7.345	-14
7.35	-16
7.355	-18
7.36	-19
7.365	-20
7.37	-22
7.375	-24
7.38	-25
7.385	-26
7.39	-28
7.395	-30
7.4	-31
7.405	-32
7.41	-34
7.415	-35
7.42	-36
7.425	-37
7.43	-38
7.435	-40
7.44	-40
7.445	-42
7.45	-42
7.455	-44
7.46	-44
7.465	-45
7.47	-46
7.475	-46
7.48	-47
7.485	-48
7.49	-48
7.495	-49
7.5	-49
7.505	-50
7.51	-50
7.515	-50
7.52	-50
7.525	-50
7.53	-50
7.535	-50
7.54	-50
7.545	-50
7.55	-50
7.555	-50
7.56	-50
7.565	-50
7.57	-49
7.575	-48
7.58	-48
7.585	-48
7.59	-47
7.595	-46
7.6	-46
7.605	-45
7.61	-44
7.615	-43
7.62	-42
7.625	-42
7.63	-40
7.635	-39
7.64	-38
7.645	-37
7.65	-36
7.655	-34
7.66	-33
7.665	-32
7.67	-30
7.675	-29
7.68	-28
7.685	-26
7.69	-25
7.695	-23
7.7	-22
7.705	-20
7.71	-18
7.715	-16
7.72	-15
7.725	-14
7.73	-12
7.735	-10
7.74	-8
7.745	-6
7.75	-4
7.755	-3
7.76	-1
7.765	0
7.77	2
7.775	4
7.78	6
7.785	8
7.79	10
7.795	11
7.8	13
7.805	15
7.81	17
7.815	18
7.82	20
7.825	22
7.83	24
7.835	25
7.84	27
7.845	28
7.85	30
7.855	32
7.86	33
7.865	34
7.87	36
7.875	38
7.88	39
7.885	40
7.89	42
7.895	43
7.9	44
7.905	45
7.91	46
7.915	48
7.92	48
7.925	50
7.93	50
7.935	52
7.94	52
7.945	53
7.95	54
7.955	54
7.96	55
7.965	56
7.97	56
7.975	56
7.98	57
7.985	58
7.99	58
7.995	58
8	58
8.005	58
8.01	58
8.015	58
8.02	58
8.025	58
8.03	58
8.035	58
8.04	57
8.045	56
8.05	56
8.055	56
8.06	55
8.065	54
8.07	54
8.075	53
8.08	52
8.085	52
8.09	51
8.095	50
8.1	49
8.105	48
8.11	46
8.115	46
8.12	44
8.125	43
8.13	42
8.135	40
8.14	39
8.145	38
8.15	36
8.155	35
8.16	34
8.165	32
8.17	30
8.175	29
8.18	27
8.185	26
8.19	24
8.195	22
8.2	20
8.205	18
8.21	17
8.215	15
8.22	14
8.225	12
8.23	10
8.235	8
8.24	6
8.245	4
8.25	2
8.255	0
8.26	-1
8.265	-3
8.27	-4
8.275	-6
8.28	-8
8.285	-10
8.29	-12
8.295	-14
8.3	-16
8.305	-17
8.31	-19
8.315	-20
8.32	-22
8.325	-24
8.33	-26
8.335	-27
8.34	-28
8.345	-30
8.35	-32
8.355	-33
8.36	-34
8.365	-36
8.37	-37
8.375	-38
8.38	-39
8.385	-40
8.39	-42
8.395	-42
8.4	-44
8.405	-44
8.41	-46
8.415	-46
8.42	-47
8.425	-48
8.43	-48
8.435	-49
8.44	-50
8.445	-50
8.45	-51
8.455	-51
8.46	-52
8.465	-52
8.47	-52
8.475	-52
8.48	-52
8.485	-52
8.49	-52
8.495	-52
8.5	-52
8.505	-52
8.51	-52
8.515	-52
8.52	-51
8.525	-50
8.53	-50
8.535	-50
8.54	-49
8.545	-48
8.55	-48
8.555	-47
8.56	-46
8.565	-45
8.57	-44
8.575	-44
8.58	-42
8.585	-41
8.59	-40
8.595	-39
8.6	-38
8.605	-36
8.61	-35
8.615	-34
8.62	-32
8.625	-31
8.63	-30
8.635	-28
8.64	-26
8.645	-25
8.65	-23
8.655	-22
8.66	-20
8.665	-18
8.67	-16
8.675	-15
8.68	-13
8.685	-12
8.69	-10
8.695	-8
8.7	-6
8.705	-4
8.71	-2
8.715	0
8.72	2
8.725	3
8.73	5
8.735	7
8.74	8
8.745	10
8.75	12
8.755	14
8.76	16
8.765	18
8.77	20
8.775	21
8.78	23
8.785	24
8.79	26
8.795	28
8.8	30
8.805	31
8.81	32
8.815	34
8.82	36
8.825	37
8.83	38
8.835	40
8.84	42
8.845	42
8.85	44
8.855	45
8.86	46
8.865	48
8.87	48
8.875	50
8.88	50
8.885	52
8.89	52
8.895	53
8.9	54
8.905	54
8.91	55
8.915	56
8.92	56
8.925	57
8.93	57
8.935	58
8.94	58
8.945	58
8.95	58
8.955	58
8.96	58
8.965	58
8.97	58
8.975	58
8.98	58
8.985	58
8.99	58
8.995	58
9	57
9.005	56
9.01	56
9.015	56
9.02	54
9.025	54
9.03	53
9.035	52
9.04	52
9.045	50
9.05	50
9.055	48
9.06	48
9.065	46
9.07	46
9.075	44
9.08	43
9.085	42
9.09	40
9.095	39
9.1	38
9.105	36
9.11	34
9.115	33
9.12	32
9.125	30
9.13	28
9.135	26
9.14	25
9.145	23
9.15	22
9.155	20
9.16	18
9.165	16
9.17	14
9.175	12
9.18	11
9.185	9
9.19	8
9.195	6
9.2	4
9.205	2
9.21	0
9.215	-2
9.22	-4
9.225	-6
9.23	-8
9.235	-9
9.24	-11
9.245	-12
9.25	-14
9.255	-16
9.26	-18
9.265	-20
9.27	-21
9.275	-22
9.28	-24
9.285	-26
9.29	-27
9.295	-28
9.3	-30
9.305	-32
9.31	-33
9.315	-34
9.32	-36
9.325	-37
9.33	-38
9.335	-39
9.34	-40
9.345	-42
9.35	-42
9.355	-44
9.36	-44
9.365	-46
9.37	-46
9.375	-47
9.38	-48
9.385	-48
9.39	-49
9.395	-50
9.4	-50
9.405	-50
9.41	-50
9.415	-51
9.42	-51
9.425	-52
9.43	-52
9.435	-52
9.44	-52
9.445	-52
9.45	-52
9.455	-52
9.46	-51
9.465	-51
9.47	-50
9.475	-50
9.48	-50
9.485	-49
9.49	-48
9.495	-48
9.5	-48
9.505	-46
9.51	-46
9.515	-45
9.52	-44
9.525	-43
9.53	-42
9.535	-41
9.54	-40
9.545	-39
9.55	-38
9.555	-36
9.56	-35
9.565	-34
9.57	-32
9.575	-31
9.58	-30
9.585	-28
9.59	-27
9.595	-26
9.6	-24
9.605	-22
9.61	-20
9.615	-19
9.62	-17
9.625	-16
9.63	-14
9.635	-12
9.64	-10
9.645	-8
9.65	-7
9.655	-5
9.66	-4
9.665	-2
9.67	0
9.675	2
9.68	4
9.685	6
9.69	7
9.695	9
9.7	10
9.705	12
9.71	14
9.715	16
9.72	18
9.725	20
9.73	21
9.735	23
9.74	24
9.745	26
9.75	28
9.755	29
9.76	31
9.765	32
9.77	34
9.775	35
9.78	36
9.785	38
9.79	39
9.795	40
9.8	42
9.805	43
9.81	44
9.815	45
9.82	46
9.825	48
9.83	48
9.835	49
9.84	50
9.845	51
9.85	52
9.855	52
9.86	53
9.865	54
9.87	54
9.875	54
9.88	55
9.885	56
9.89	56
9.895	56
9.9	56
9.905	56
9.91	56
9.915	56
9.92	56
9.925	56
9.93	56
9.935	56
9.94	56
9.945	56
9.95	55
9.955	55
9.96	54
9.965	54
9.97	53
9.975	52
9.98	52
9.985	51
9.99	50
9.995	50
10	48
10.005	48
10.01	46
10.015	46
10.02	44
10.025	43
10.03	42
10.035	41
10.04	40
10.045	38
10.05	37
10.055	36
10.06	34
10.065	32
10.07	31
10.075	30
10.08	28
10.085	26
10.09	25
10.095	24
10.1	22
10.105	20
10.11	18
10.115	17
10.12	15
10.125	14
10.13	12
10.135	10
10.14	8
10.145	6
10.15	5
10.155	3
10.16	2
10.165	0
10.17	-2
10.175	-4
10.18	-6
10.185	-7
10.19	-9
10.195	-10
10.2	-12
10.205	-14
10.21	-16
10.215	-17
10.22	-18
10.225	-20
10.23	-22
10.235	-23
10.24	-24
10.245	-26
10.25	-28
10.255	-29
10.26	-30
10.265	-32
10.27	-32
10.275	-34
10.28	-35
10.285	-36
10.29	-37
10.295	-38
10.3	-39
10.305	-40
10.31	-41
10.315	-42
10.32	-43
10.325	-44
10.33	-44
10.335	-45
10.34	-46
10.345	-46
10.35	-46
10.355	-47
10.36	-47
10.365	-48
10.37	-48
10.375	-48
10.38	-48
10.385	-48
10.39	-48
10.395	-48
10.4	-48
10.405	-48
10.41	-48
10.415	-48
10.42	-48
10.425	-47
10.43	-46
10.435	-46
10.44	-46
10.445	-45
10.45	-44
10.455	-44
10.46	-43
10.465	-42
10.47	-42
10.475	-41
10.48	-40
10.485	-39
10.49	-38
10.495	-37
10.5	-36
10.505	-34
10.51	-34
10.515	-32
10.52	-31
10.525	-30
10.53	-28
10.535	-27
10.54	-26
10.545	-24
10.55	-23
10.555	-22
10.56	-20
10.565	-18
10.57	-17
10.575	-16
10.58	-14
10.585	-12
10.59	-10
10.595	-9
10.6	-8
10.605	-6
10.61	-4
10.615	-2
10.62	-1
10.625	1
10.63	2
10.635	4
10.64	6
10.645	8
10.65	9
10.655	10
10.66	12
10.665	14
10.67	16
10.675	17
10.68	18
10.685	20
10.69	22
10.695	23
10.7	24
10.705	26
10.71	28
10.715	29
10.72	30
10.725	32
10.73	33
10.735	34
10.74	36
10.745	37
10.75	38
10.755	39
10.76	40
10.765	41
10.77	42
10.775	43
10.78	44
10.785	45
10.79	46
10.795	46
10.8	47
10.805	48
10.81	48
10.815	49
10.82	50
10.825	50
10.83	50
10.835	51
10.84	52
10.845	52
10.85	52
10.855	52
10.86	52
10.865	52
10.87	52
10.875	52
10.88	52
10.885	52
10.89	52
10.895	52
10.9	51
10.905	50
10.91	50
10.915	50
10.92	49
10.925	48
10.93	48
10.935	48
10.94	46
10.945	46
10.95	45
10.955	44
10.96	44
10.965	42
10.97	42
10.975	40
10.98	40
10.985	38
10.99	37
10.995	36
11	35
11.005	34
11.01	32
11.015	31
11.02	30
11.025	28
11.03	27
11.035	26
11.04	24
11.045	22
11.05	21
11.055	20
11.06	18
11.065	17
11.07	15
11.075	14
11.08	12
11.085	10
11.09	9
11.095	8
11.1	6
11.105	4
11.11	3
11.115	1
11.12	0
11.125	-2
11.13	-4
11.135	-5
11.14	-6
11.145	-8
11.15	-10
11.155	-11
11.16	-12
11.165	-14
11.17	-15
11.175	-16
11.18	-18
11.185	-20
11.19	-20
11.195	-22
11.2	-23
11.205	-24
11.21	-26
11.215	-27
11.22	-28
11.225	-29
11.23	-30
11.235	-31
11.24	-32
11.245	-33
11.25	-34
11.255	-35
11.26	-36
11.265	-36
11.27	-37
11.275	-38
11.28	-38
11.285	-39
11.29	-40
11.295	-40
11.3	-40
11.305	-41
11.31	-42
11.315	-42
11.32	-42
11.325	-42
11.33	-42
11.335	-42
11.34	-42
11.345	-42
11.35	-42
11.355	-42
11.36	-42
11.365	-42
11.37	-42
11.375	-42
11.38	-42
11.385	-41
11.39	-40
11.395	-40
11.4	-40
11.405	-39
11.41	-38
11.415	-38
11.42	-37
11.425	-36
11.43	-36
11.435	-34
11.44	-34
11.445	-33
11.45	-32
11.455	-31
11.46	-30
11.465	-29
11.47	-28
11.475	-27
11.48	-26
11.485	-24
11.49	-24
11.495	-22
11.5	-21
11.505	-20
11.51	-18
11.515	-17
11.52	-16
11.525	-14
11.53	-13
11.535	-12
11.54	-10
11.545	-9
11.55	-8
11.555	-6
11.56	-4
11.565	-3
11.57	-2
11.575	0
11.58	1
11.585	2
11.59	4
11.595	6
11.6	7
11.605	8
11.61	10
11.615	11
11.62	12
11.625	14
11.63	16
11.635	17
11.64	18
11.645	20
11.65	20
11.655	22
11.66	23
11.665	24
11.67	26
11.675	27
11.68	28
11.685	29
11.69	30
11.695	31
11.7	32
11.705	34
11.71	34
11.715	35
11.72	36
11.725	37
11.73	38
11.735	38
11.74	39
11.745	40
11.75	40
11.755	41
11.76	42
11.765	42
11.77	43
11.775	43
11.78	44
11.785	44
11.79	44
11.795	44
11.8	44
11.805	45
11.81	45
11.815	45
11.82	45
11.825	45
11.83	45
11.835	45
11.84	45
11.845	44
11.85	44
11.855	44
11.86	44
11.865	43
11.87	43
11.875	42
11.88	42
11.885	42
11.89	41
11.895	40
11.9	40
11.905	39
11.91	38
11.915	38
11.92	36
11.925	36
11.93	35
11.935	34
11.94	33
11.945	32
11.95	31
11.955	30
11.96	29
11.965	28
11.97	27
11.975	26
11.98	24
11.985	24
11.99	22
11.995	21
12	20
12.005	18
12.01	17
12.015	16
12.02	14
12.025	14
12.03	12
12.035	10
12.04	10
12.045	8
12.05	7
12.055	6
12.06	4
12.065	3
12.07	2
12.075	0
12.08	-1
12.085	-2
12.09	-4
12.095	-5
12.1	-6
12.105	-8
12.11	-9
12.115	-10
12.12	-11
12.125	-12
12.13	-14
12.135	-14
12.14	-16
12.145	-17
12.15	-18
12.155	-19
12.16	-20
12.165	-21
12.17	-22
12.175	-23
12.18	-24
12.185	-24
12.19	-26
12.195	-26
12.2	-27
12.205	-28
12.21	-28
12.215	-29
12.22	-30
12.225	-30
12.23	-31
12.235	-32
12.24	-32
12.245	-32
12.25	-33
12.255	-34
12.26	-34
12.265	-34
12.27	-34
12.275	-34
12.28	-34
12.285	-34
12.29	-34
12.295	-34
12.3	-34
12.305	-34
12.31	-34
12.315	-34
12.32	-34
12.325	-34
12.33	-34
12.335	-34
12.34	-34
12.345	-33
12.35	-32
12.355	-32
12.36	-32
12.365	-31
12.37	-30
12.375	-30
12.38	-30
12.385	-29
12.39	-28
12.395	-28
12.4	-26
12.405	-26
12.41	-25
12.415	-24
12.42	-24
12.425	-22
12.43	-22
12.435	-20
12.44	-20
12.445	-18
12.45	-18
12.455	-16
12.46	-16
12.465	-14
12.47	-14
12.475	-12
12.48	-12
12.485	-10
12.49	-9
12.495	-8
12.5	-7
12.505	-6
12.51	-4
12.515	-4
12.52	-2
12.525	-1
12.53	0
12.535	2
12.54	2
12.545	4
12.55	5
12.555	6
12.56	7
12.565	8
12.57	10
12.575	10
12.58	12
12.585	13
12.59	14
12.595	15
12.6	16
12.605	17
12.61	18
12.615	19
12.62	20
12.625	21
12.63	22
12.635	23
12.64	24
12.645	24
12.65	26
12.655	26
12.66	27
12.665	28
12.67	28
12.675	29
12.68	30
12.685	30
12.69	31
12.695	32
12.7	32
12.705	33
12.71	34
12.715	34
12.72	34
12.725	34
12.73	35
12.735	35
12.74	36
12.745	36
12.75	36
12.755	36
12.76	36
12.765	36
12.77	36
12.775	36
12.78	36
12.785	36
12.79	36
12.795	36
12.8	36
12.805	36
12.81	36
12.815	35
12.82	35
12.825	34
12.83	34
12.835	34
12.84	34
12.845	33
12.85	32
12.855	32
12.86	32
12.865	30
12.87	30
12.875	30
12.88	29
12.885	28
12.89	28
12.895	27
12.9	26
12.905	25
12.91	24
12.915	24
12.92	22
12.925	22
12.93	21
12.935	20
12.94	19
12.945	18
12.95	17
12.955	16
12.96	16
12.965	14
12.97	14
12.975	12
12.98	12
12.985	10
12.99	10
12.995	8
13	8
13.005	6
13.01	6
13.015	4
13.02	4
13.025	2
13.03	2
13.035	0
13.04	0
13.045	-2
13.05	-2
13.055	-4
13.06	-4
13.065	-6
13.07	-6
13.075	-7
13.08	-8
13.085	-9
13.09	-10
13.095	-10
13.1	-12
13.105	-12
13.11	-13
13.115	-14
13.12	-15
13.125	-16
13.13	-16
13.135	-17
13.14	-18
13.145	-18
13.15	-19
13.155	-20
13.16	-20
13.165	-20
13.17	-21
13.175	-22
13.18	-22
13.185	-22
13.19	-23
13.195	-23
13.2	-24
13.205	-24
13.21	-24
13.215	-24
13.22	-24
13.225	-24
13.23	-25
13.235	-25
13.24	-25
13.245	-25
13.25	-25
13.255	-25
13.26	-25
13.265	-25
13.27	-25
13.275	-25
13.28	-24
13.285	-24
13.29	-24
13.295	-24
13.3	-24
13.305	-24
13.31	-23
13.315	-23
13.32	-22
13.325	-22
13.33	-22
13.335	-21
13.34	-20
13.345	-20
13.35	-20
13.355	-19
13.36	-18
13.365	-18
13.37	-18
13.375	-17
13.38	-16
13.385	-16
13.39	-15
13.395	-14
13.4	-14
13.405	-12
13.41	-12
13.415	-11
13.42	-10
13.425	-10
13.43	-9
13.435	-8
13.44	-7
13.445	-6
13.45	-6
13.455	-5
13.46	-4
13.465	-3
13.47	-2
13.475	-2
13.48	0
13.485	0
13.49	1
13.495	2
13.5	3
13.505	4
13.51	4
13.515	5
13.52	6
13.525	7
13.53	8
13.535	8
13.54	9
13.545	10
13.55	11
13.555	12
13.56	12
13.565	13
13.57	14
13.575	14
13.58	15
13.585	16
13.59	16
13.595	17
13.6	18
13.605	18
13.61	19
13.615	20
13.62	20
13.625	20
13.63	21
13.635	22
13.64	22
13.645	22
13.65	22
13.655	23
13.66	24
13.665	24
13.67	24
13.675	24
13.68	24
13.685	25
13.69	25
13.695	26
13.7	26
13.705	26
13.71	26
13.715	26
13.72	26
13.725	26
13.73	26
13.735	26
13.74	26
13.745	26
13.75	26
13.755	26
13.76	26
13.765	26
13.77	26
13.775	25
13.78	25
13.785	24
13.79	24
13.795	24
13.8	24
13.805	24
13.81	23
13.815	23
13.82	22
13.825	22
13.83	22
13.835	21
13.84	20
13.845	20
13.85	20
13.855	19
13.86	19
13.865	18
13.87	18
13.875	17
13.88	16
13.885	16
13.89	16
13.895	15
13.9	14
13.905	14
13.91	13
13.915	12
13.92	12
13.925	11
13.93	10
13.935	10
13.94	9
13.945	8
13.95	8
13.955	7
13.96	6
13.965	6
13.97	5
13.975	4
13.98	4
13.985	3
13.99	2
13.995	2
14	2
14.005	0
14.01	0
14.015	0
14.02	-2
14.025	-2
14.03	-2
14.035	-3
14.04	-4
14.045	-4
14.05	-5
14.055	-6
14.06	-6
14.065	-6
14.07	-7
14.075	-8
14.08	-8
14.085	-8
14.09	-8
14.095	-9
14.1	-10
14.105	-10
14.11	-10
14.115	-10
14.12	-11
14.125	-12
14.13	-12
14.135	-12
14.14	-12
14.145	-12
14.15	-13
14.155	-13
14.16	-13
14.165	-14
14.17	-14
14.175	-14
14.18	-14
14.185	-14
14.19	-14
14.195	-14
14.2	-14
14.205	-14
14.21	-14
14.215	-14
14.22	-14
14.225	-14
14.23	-14
14.235	-14
14.24	-14
14.245	-14
14.25	-14
14.255	-14
14.26	-14
14.265	-14
14.27	-13
14.275	-13
14.28	-12
14.285	-12
14.29	-12
14.295	-12
14.3	-12
14.305	-12
14.31	-11
14.315	-10
14.32	-10
14.325	-10
14.33	-10
14.335	-10
14.34	-9
14.345	-8
14.35	-8
14.355	-8
14.36	-8
14.365	-7
14.37	-6
14.375	-6
14.38	-6
14.385	-5
14.39	-5
14.395	-4
14.4	-4
14.405	-4
14.41	-3
14.415	-2
14.42	-2
14.425	-2
14.43	-1
14.435	0
14.44	0
14.445	0
14.45	1
14.455	2
14.46	2
14.465	2
14.47	3
14.475	3
14.48	4
14.485	4
14.49	4
14.495	5
14.5	6
14.505	6
14.51	6
14.515	7
14.52	7
14.525	8
14.53	8
14.535	8
14.54	9
14.545	9
14.55	10
14.555	10
14.56	10
14.565	10
14.57	11
14.575	11
14.58	12
14.585	12
14.59	12
14.595	12
14.6	12
14.605	12
14.61	13
14.615	13
14.62	14
14.625	14
14.63	14
14.635	14
14.64	14
14.645	14
14.65	14
14.655	14
14.66	14
14.665	14
14.67	14
14.675	14
14.68	15
14.685	15
14.69	15
14.695	15
14.7	15
14.705	15
14.71	15
14.715	15
14.72	15
14.725	14
14.73	14
14.735	14
14.74	14
14.745	14
14.75	14
14.755	14
14.76	14
14.765	14
14.77	14
14.775	14
14.78	14
14.785	13
14.79	13
14.795	13
14.8	12
14.805	12
14.81	12
14.815	12
14.82	12
14.825	12
14.83	11
14.835	11
14.84	11
14.845	10
14.85	10
14.855	10
14.86	10
14.865	10
14.87	9
14.875	9
14.88	8
14.885	8
14.89	8
14.895	8
14.9	8
14.905	7
14.91	7
14.915	6
14.92	6
14.925	6
14.93	6
14.935	6
14.94	5
14.945	5
14.95	4
14.955	4
14.96	4
14.965	4
14.97	4
14.975	3
14.98	3
14.985	3
14.99	2
14.995	2
15	2
15.005	2
15.01	2
15.015	1
15.02	1
15.025	1
15.03	0
15.035	0
15.04	0
15.045	0
15.05	0
15.055	0
15.06	0
15.065	-1
15.07	-1
15.075	-1
15.08	-1
15.085	-2
15.09	-2
15.095	-2
15.1	-2
15.105	-2
15.11	-2
15.115	-2
15.12	-2
15.125	-2
15.13	-2
15.135	-2
15.14	-2
15.145	-2
15.15	-3
15.155	-3
15.16	-3
15.165	-3
15.17	-3
15.175	-3
15.18	-3
15.185	-3
15.19	-3
15.195	-3
15.2	-3
15.205	-3
15.21	-3
15.215	-3
15.22	-3
15.225	-3
15.23	-3
15.235	-3
15.24	-3
15.245	-3
15.25	-3
15.255	-3
15.26	-3
15.265	-3
15.27	-2
15.275	-2
15.28	-2
15.285	-2
15.29	-2
15.295	-2
15.3	-2
15.305	-2
15.31	-2
15.315	-2
15.32	-2
15.325	-2
15.33	-2
15.335	-2
15.34	-2
15.345	-2
15.35	-2
15.355	-2
15.36	-2
15.365	-1
15.37	-1
15.375	-1
15.38	-1
15.385	-1
15.39	-1
15.395	0
15.4	0
15.405	0
15.41	0
15.415	0
15.42	0
15.425	0
15.43	0
15.435	0
15.44	0
15.445	0
15.45	0
15.455	0
15.46	0
15.465	0
15.47	1
15.475	1
15.48	1
15.485	1
15.49	1
15.495	1
15.5	1
15.505	2
15.51	2
15.515	2
15.52	2
15.525	2
15.53	2
15.535	2
15.54	2
15.545	2
15.55	2
15.555	2
15.56	2
15.565	2
15.57	2
15.575	2
15.58	2
15.585	2
15.59	2
15.595	2
15.6	3
15.605	3
15.61	3
15.615	3
15.62	3
15.625	3
15.63	3
15.635	3
15.64	4
15.645	4
15.65	4
15.655	4
15.66	4
15.665	4
15.67	4
15.675	4
15.68	4
15.685	4
15.69	4
15.695	4
15.7	4
15.705	4
15.71	4
15.715	4
15.72	4
15.725	4
15.73	4
15.735	4
15.74	5
15.745	5
15.75	5
15.755	5
15.76	5
15.765	5
15.77	5
15.775	6
15.78	6
15.785	6
15.79	6
15.795	6
15.8	6
15.805	6
15.81	6
15.815	6
15.82	6
15.825	6
15.83	6
15.835	6
15.84	6
15.845	6
15.85	7
15.855	7
15.86	7
15.865	7
15.87	7
15.875	7
15.88	8
15.885	8
15.89	8
15.895	8
15.9	8
15.905	8
15.91	8
15.915	8
15.92	8
15.925	8
15.93	8
15.935	8
15.94	8
15.945	8
15.95	8
15.955	8
15.96	8
15.965	8
15.97	8
15.975	9
15.98	9
15.985	9
15.99	9
15.995	9
16	9
16.005	9
16.01	9
16.015	9
16.02	9
16.025	9
16.03	9
16.035	9
16.04	9
16.045	9
16.05	9
16.055	9
16.06	9
16.065	9
16.07	9
16.075	9
16.08	9
16.085	9
16.09	9
16.095	8
16.1	8
16.105	8
16.11	8
16.115	8
16.12	8
16.125	8
16.13	8
16.135	8
16.14	8
16.145	8
16.15	8
16.155	8
16.16	7
16.165	7
16.17	7
16.175	7
16.18	6
16.185	6
16.19	6
16.195	6
16.2	6
16.205	6
16.21	6
16.215	5
16.22	5
16.225	5
16.23	4
16.235	4
16.24	4
16.245	4
16.25	4
16.255	4
16.26	3
16.265	3
16.27	2
16.275	2
16.28	2
16.285	2
16.29	2
16.295	1
16.3	1
16.305	0
16.31	0
16.315	0
16.32	0
16.325	0
16.33	-1
16.335	-1
16.34	-2
16.345	-2
16.35	-2
16.355	-2
16.36	-2
16.365	-2
16.37	-3
16.375	-3
16.38	-4
16.385	-4
16.39	-4
16.395	-4
16.4	-4
16.405	-5
16.41	-5
16.415	-6
16.42	-6
16.425	-6
16.43	-6
16.435	-6
16.44	-6
16.445	-6
16.45	-7
16.455	-7
16.46	-7
16.465	-8
16.47	-8
16.475	-8
16.48	-8
16.485	-8
16.49	-8
16.495	-8
16.5	-8
16.505	-8
16.51	-8
16.515	-8
16.52	-8
16.525	-8
16.53	-8
16.535	-9
16.54	-9
16.545	-9
16.55	-9
16.555	-9
16.56	-9
16.565	-8
16.57	-8
16.575	-8
16.58	-8
16.585	-8
16.59	-8
16.595	-8
16.6	-8
16.605	-8
16.61	-8
16.615	-8
16.62	-8
16.625	-7
16.63	-7
16.635	-7
16.64	-6
16.645	-6
16.65	-6
16.655	-6
16.66	-6
16.665	-6
16.67	-5
16.675	-4
16.68	-4
16.685	-4
16.69	-4
16.695	-4
16.7	-3
16.705	-2
16.71	-2
16.715	-2
16.72	-2
16.725	-1
16.73	0
16.735	0
16.74	0
16.745	0
16.75	1
16.755	2
16.76	2
16.765	2
16.77	3
16.775	3
16.78	4
16.785	4
16.79	4
16.795	5
16.8	6
16.805	6
16.81	6
16.815	7
16.82	8
16.825	8
16.83	8
16.835	9
16.84	9
16.845	10
16.85	10
16.855	10
16.86	11
16.865	12
16.87	12
16.875	12
16.88	13
16.885	13
16.89	14
16.895	14
16.9	14
16.905	15
16.91	15
16.915	16
16.92	16
16.925	16
16.93	16
16.935	17
16.94	17
16.945	18
16.95	18
16.955	18
16.96	18
16.965	18
16.97	18
16.975	19
16.98	19
16.985	19
16.99	20
16.995	20
17	20
17.005	20
17.01	20
17.015	20
17.02	20
17.025	20
17.03	20
17.035	20
17.04	20
17.045	20
17.05	20
17.055	20
17.06	20
17.065	20
17.07	20
17.075	20
17.08	19
17.085	19
17.09	19
17.095	18
17.1	18
17.105	18
17.11	18
17.115	18
17.12	18
17.125	17
17.13	16
17.135	16
17.14	16
17.145	16
17.15	15
17.155	14
17.16	14
17.165	14
17.17	14
17.175	13
17.18	12
17.185	12
17.19	12
17.195	11
17.2	10
17.205	10
17.21	9
17.215	8
17.22	8
17.225	8
17.23	6
17.235	6
17.24	6
17.245	5
17.25	4
17.255	4
17.26	3
17.265	2
17.27	2
17.275	1
17.28	0
17.285	0
17.29	-1
17.295	-2
17.3	-2
17.305	-3
17.31	-4
17.315	-4
17.32	-4
17.325	-6
17.33	-6
17.335	-6
17.34	-7
17.345	-8
17.35	-8
17.355	-9
17.36	-10
17.365	-10
17.37	-10
17.375	-11
17.38	-12
17.385	-12
17.39	-13
17.395	-13
17.4	-14
17.405	-14
17.41	-14
17.415	-15
17.42	-16
17.425	-16
17.43	-16
17.435	-16
17.44	-17
17.445	-18
17.45	-18
17.455	-18
17.46	-18
17.465	-18
17.47	-18
17.475	-19
17.48	-19
17.485	-19
17.49	-19
17.495	-20
17.5	-20
17.505	-20
17.51	-20
17.515	-20
17.52	-20
17.525	-20
17.53	-20
17.535	-19
17.54	-19
17.545	-19
17.55	-19
17.555	-18
17.56	-18
17.565	-18
17.57	-18
17.575	-18
17.58	-18
17.585	-17
17.59	-16
17.595	-16
17.6	-16
17.605	-16
17.61	-15
17.615	-14
17.62	-14
17.625	-14
17.63	-13
17.635	-12
17.64	-12
17.645	-11
17.65	-10
17.655	-10
17.66	-10
17.665	-8
17.67	-8
17.675	-8
17.68	-7
17.685	-6
17.69	-6
17.695	-4
17.7	-4
17.705	-3
17.71	-2
17.715	-2
17.72	0
17.725	0
17.73	1
17.735	2
17.74	2
17.745	4
17.75	4
17.755	5
17.76	6
17.765	6
17.77	8
17.775	8
17.78	9
17.785	10
17.79	11
17.795	12
17.8	12
17.805	13
17.81	14
17.815	14
17.82	16
17.825	16
17.83	17
17.835	18
17.84	18
17.845	19
17.85	20
17.855	20
17.86	21
17.865	22
17.87	22
17.875	23
17.88	24
17.885	24
17.89	24
17.895	25
17.9	26
17.905	26
17.91	27
17.915	27
17.92	28
17.925	28
17.93	28
17.935	28
17.94	29
17.945	30
17.95	30
17.955	30
17.96	30
17.965	30
17.97	30
17.975	30
17.98	30
17.985	30
17.99	30
17.995	30
18	30
18.005	30
18.01	30
18.015	30
18.02	30
18.025	30
18.03	30
18.035	30
18.04	29
18.045	29
18.05	28
18.055	28
18.06	28
18.065	28
18.07	27
18.075	26
18.08	26
18.085	26
18.09	25
18.095	24
18.1	24
18.105	23
18.11	22
18.115	22
18.12	21
18.125	20
18.13	20
18.135	19
18.14	18
18.145	18
18.15	16
18.155	16
18.16	15
18.165	14
18.17	13
18.175	12
18.18	12
18.185	10
18.19	10
18.195	8
18.2	8
18.205	6
18.21	6
18.215	5
18.22	4
18.225	3
18.23	2
18.235	1
18.24	0
18.245	-1
18.25	-2
18.255	-3
18.26	-4
18.265	-5
18.27	-6
18.275	-7
18.28	-8
18.285	-9
18.29	-10
18.295	-10
18.3	-12
18.305	-12
18.31	-14
18.315	-14
18.32	-15
18.325	-16
18.33	-17
18.335	-18
18.34	-18
18.345	-19
18.35	-20
18.355	-20
18.36	-21
18.365	-22
18.37	-22
18.375	-23
18.38	-24
18.385	-24
18.39	-25
18.395	-26
18.4	-26
18.405	-26
18.41	-27
18.415	-27
18.42	-28
18.425	-28
18.43	-28
18.435	-28
18.44	-28
18.445	-29
18.45	-29
18.455	-29
18.46	-29
18.465	-29
18.47	-29
18.475	-29
18.48	-29
18.485	-29
18.49	-29
18.495	-29
18.5	-28
18.505	-28
18.51	-28
18.515	-28
18.52	-28
18.525	-27
18.53	-27
18.535	-26
18.54	-26
18.545	-26
18.55	-25
18.555	-24
18.56	-24
18.565	-23
18.57	-22
18.575	-22
18.58	-21
18.585	-20
18.59	-20
18.595	-19
18.6	-18
18.605	-17
18.61	-16
18.615	-16
18.62	-14
18.625	-14
18.63	-12
18.635	-12
18.64	-10
18.645	-10
18.65	-8
18.655	-8
18.66	-6
18.665	-6
18.67	-4
18.675	-4
18.68	-2
18.685	-1
18.69	0
18.695	1
18.7	2
18.705	4
18.71	4
18.715	6
18.72	7
18.725	8
18.73	9
18.735	10
18.74	12
18.745	12
18.75	14
18.755	14
18.76	16
18.765	17
18.77	18
18.775	19
18.78	20
18.785	21
18.79	22
18.795	23
18.8	24
18.805	25
18.81	26
18.815	27
18.82	28
18.825	28
18.83	30
18.835	30
18.84	31
18.845	32
18.85	32
18.855	33
18.86	34
18.865	34
18.87	35
18.875	36
18.88	36
18.885	36
18.89	37
18.895	38
18.9	38
18.905	38
18.91	38
18.915	39
18.92	39
18.925	40
18.93	40
18.935	40
18.94	40
18.945	40
18.95	40
18.955	40
18.96	40
18.965	40
18.97	40
18.975	40
18.98	39
18.985	39
18.99	38
18.995	38
19	38
19.005	38
19.01	37
19.015	36
19.02	36
19.025	36
19.03	34
19.035	34
19.04	34
19.045	32
19.05	32
19.055	31
19.06	30
19.065	30
19.07	28
19.075	28
19.08	27
19.085	26
19.09	25
19.095	24
19.1	23
19.105	22
19.11	20
19.115	20
19.12	18
19.125	17
19.13	16
19.135	15
19.14	14
19.145	12
19.15	12
19.155	10
19.16	9
19.165	8
19.17	6
19.175	5
19.18	4
19.185	2
19.19	2
19.195	0
19.2	-1
19.205	-2
19.21	-4
19.215	-5
19.22	-6
19.225	-8
19.23	-9
19.235	-10
19.24	-11
19.245	-12
19.25	-14
19.255	-15
19.26	-16
19.265	-17
19.27	-18
19.275	-20
19.28	-20
19.285	-22
19.29	-22
19.295	-24
19.3	-24
19.305	-26
19.31	-26
19.315	-27
19.32	-28
19.325	-29
19.33	-30
19.335	-30
19.34	-31
19.345	-32
19.35	-32
19.355	-33
19.36	-34
19.365	-34
19.37	-34
19.375	-35
19.38	-36
19.385	-36
19.39	-36
19.395	-36
19.4	-37
19.405	-37
19.41	-37
19.415	-38
19.42	-38
19.425	-38
19.43	-38
19.435	-38
19.44	-37
19.445	-37
19.45	-37
19.455	-36
19.46	-36
19.465	-36
19.47	-36
19.475	-36
19.48	-35
19.485	-34
19.49	-34
19.495	-34
19.5	-33
19.505	-32
19.51	-32
19.515	-30
19.52	-30
19.525	-29
19.53	-28
19.535	-27
19.54	-26
19.545	-26
19.55	-24
19.555	-24
19.56	-22
19.565	-22
19.57	-20
19.575	-19
19.58	-18
19.585	-17
19.59	-16
19.595	-14
19.6	-13
19.605	-12
19.61	-10
19.615	-9
19.62	-8
19.625	-6
19.63	-5
19.635	-4
19.64	-2
19.645	-1
19.65	0
19.655	2
19.66	3
19.665	4
19.67	6
19.675	7
19.68	8
19.685	10
19.69	11
19.695	12
19.7	14
19.705	16
19.71	17
19.715	18
19.72	20
19.725	20
19.73	22
19.735	24
19.74	24
19.745	26
19.75	27
19.755	28
19.76	30
19.765	30
19.77	32
19.775	32
19.78	34
19.785	34
19.79	36
19.795	36
19.8	38
19.805	38
19.81	40
19.815	40
19.82	41
19.825	42
19.83	42
19.835	43
19.84	44
19.845	44
19.85	44
19.855	45
19.86	46
19.865	46
19.87	46
19.875	46
19.88	46
19.885	47
19.89	47
19.895	47
19.9	47
19.905	47
19.91	47
19.915	47
19.92	47
19.925	46
19.93	46
19.935	46
19.94	46
19.945	46
19.95	45
19.955	44
19.96	44
19.965	44
19.97	43
19.975	42
19.98	42
19.985	41
19.99	40
19.995	40
20	38
20.005	38
20.01	36
20.015	36
20.02	34
20.025	34
20.03	32
20.035	32
20.04	30
20.045	29
20.05	28
20.055	26
20.06	26
20.065	24
20.07	23
20.075	22
20.08	20
20.085	18
20.09	18
20.095	16
20.1	14
20.105	13
20.11	12
20.115	10
20.12	8
20.125	7
20.13	6
20.135	4
20.14	2
20.145	1
20.15	0
20.155	-2
20.16	-4
20.165	-5
20.17	-6
20.175	-8
20.18	-10
20.185	-11
20.19	-12
20.195	-14
20.2	-15
20.205	-16
20.21	-18
20.215	-19
20.22	-20
20.225	-22
20.23	-23
20.235	-24
20.24	-26
20.245	-27
20.25	-28
20.255	-29
20.26	-30
20.265	-31
20.27	-32
20.275	-33
20.28	-34
20.285	-35
20.29	-36
20.295	-36
20.3	-38
20.305	-38
20.31	-39
20.315	-40
20.32	-40
20.325	-41
20.33	-42
20.335	-42
20.34	-42
20.345	-42
20.35	-43
20.355	-43
20.36	-44
20.365	-44
20.37	-44
20.375	-44
20.38	-44
20.385	-44
20.39	-44
20.395	-44
20.4	-44
20.405	-44
20.41	-43
20.415	-42
20.42	-42
20.425	-42
20.43	-42
20.435	-41
20.44	-40
20.445	-40
20.45	-39
20.455	-38
20.46	-38
20.465	-36
20.47	-36
20.475	-35
20.48	-34
20.485	-33
20.49	-32
20.495	-31
20.5	-30
20.505	-29
20.51	-28
20.515	-26
20.52	-25
20.525	-24
20.53	-22
20.535	-22
20.54	-20
20.545	-18
20.55	-17
20.555	-16
20.56	-14
20.565	-13
20.57	-12
20.575	-10
20.58	-8
20.585	-7
20.59	-6
20.595	-4
20.6	-2
20.605	0
20.61	1
20.615	2
20.62	4
20.625	6
20.63	8
20.635	9
20.64	10
20.645	12
20.65	14
20.655	15
20.66	16
20.665	18
20.67	20
20.675	21
20.68	22
20.685	24
20.69	26
20.695	27
20.7	28
20.705	30
20.71	31
20.715	32
20.72	34
20.725	35
20.73	36
20.735	37
20.74	38
20.745	40
20.75	40
20.755	42
20.76	42
20.765	44
20.77	44
20.775	45
20.78	46
20.785	46
20.79	48
20.795	48
20.8	48
20.805	50
20.81	50
20.815	50
20.82	50
20.825	51
20.83	52
20.835	52
20.84	52
20.845	52
20.85	52
20.855	52
20.86	52
20.865	52
20.87	52
20.875	52
20.88	52
20.885	52
20.89	51
20.895	50
20.9	50
20.905	50
20.91	49
20.915	48
20.92	48
20.925	48
20.93	46
20.935	46
20.94	45
20.945	44
20.95	43
20.955	42
20.96	41
20.965	40
20.97	39
20.975	38
20.98	37
20.985	36
20.99	34
20.995	33
21	32
21.005	30
21.01	29
21.015	28
21.02	26
21.025	25
21.03	24
21.035	22
21.04	20
21.045	18
21.05	17
21.055	16
21.06	14
21.065	12
21.07	11
21.075	9
21.08	8
21.085	6
21.09	4
21.095	2
21.1	1
21.105	-1
21.11	-2
21.115	-4
21.12	-6
21.125	-8
21.13	-9
21.135	-10
21.14	-12
21.145	-14
21.15	-15
21.155	-16
21.16	-18
21.165	-20
21.17	-21
21.175	-22
21.18	-24
21.185	-26
21.19	-27
21.195	-28
21.2	-30
21.205	-31
21.21	-32
21.215	-33
21.22	-34
21.225	-36
21.23	-36
21.235	-38
21.24	-38
21.245	-40
21.25	-40
21.255	-41
21.26	-42
21.265	-43
21.27	-44
21.275	-44
21.28	-44
21.285	-46
21.29	-46
21.295	-46
21.3	-46
21.305	-47
21.31	-48
21.315	-48
21.32	-48
21.325	-48
21.33	-48
21.335	-48
21.34	-48
21.345	-48
21.35	-48
21.355	-48
21.36	-47
21.365	-47
21.37	-46
21.375	-46
21.38	-46
21.385	-45
21.39	-44
21.395	-44
21.4	-43
21.405	-42
21.41	-42
21.415	-41
21.42	-40
21.425	-39
21.43	-38
21.435	-37
21.44	-36
21.445	-35
21.45	-34
21.455	-32
21.46	-32
21.465	-30
21.47	-29
21.475	-28
21.48	-26
21.485	-24
21.49	-23
21.495	-22
21.5	-20
21.505	-19
21.51	-17
21.515	-16
21.52	-14
21.525	-12
21.53	-11
21.535	-9
21.54	-8
21.545	-6
21.55	-4
21.555	-2
21.56	-1
21.565	1
21.57	2
21.575	4
21.58	6
21.585	8
21.59	9
21.595	11
21.6	12
21.605	14
21.61	16
21.615	18
21.62	20
21.625	21
21.63	22
21.635	24
21.64	26
21.645	27
21.65	28
21.655	30
21.66	32
21.665	33
21.67	34
21.675	36
21.68	37
21.685	38
21.69	40
21.695	40
21.7	42
21.705	43
21.71	44
21.715	45
21.72	46
21.725	47
21.73	48
21.735	49
21.74	50
21.745	50
21.75	51
21.755	52
21.76	52
21.765	53
21.77	53
21.775	54
21.78	54
21.785	54
21.79	54
21.795	55
21.8	55
21.805	55
21.81	55
21.815	55
21.82	55
21.825	55
21.83	55
21.835	54
21.84	54
21.845	54
21.85	54
21.855	53
21.86	52
21.865	52
21.87	52
21.875	50
21.88	50
21.885	49
21.89	48
21.895	48
21.9	46
21.905	46
21.91	44
21.915	44
21.92	42
21.925	41
21.93	40
21.935	39
21.94	38
21.945	36
21.95	35
21.955	34
21.96	32
21.965	30
21.97	29
21.975	28
21.98	26
21.985	24
21.99	23
21.995	22
22	20
22.005	18
22.01	16
22.015	14
22.02	13
22.025	12
22.03	10
22.035	8
22.04	6
22.045	4
22.05	3
22.055	1
22.06	0
22.065	-2
22.07	-4
22.075	-6
22.08	-8
22.085	-9
22.09	-11
22.095	-12
22.1	-14
22.105	-16
22.11	-18
22.115	-19
22.12	-20
22.125	-22
22.13	-24
22.135	-25
22.14	-26
22.145	-28
22.15	-29
22.155	-30
22.16	-32
22.165	-33
22.17	-34
22.175	-36
22.18	-36
22.185	-38
22.19	-39
22.195	-40
22.2	-41
22.205	-42
22.21	-42
22.215	-44
22.22	-44
