#	time(s)	count A	count B	count C	count D
1	0.0100	-64			
2	0.0200	-70			
3	0.0300	-76			
4	0.0400	-81			
5	0.0500	-86			
6	0.0600	-90			
7	0.0700	-94			
8	0.0800	-97			
9	0.0900	-100			
10	0.1000	-102			
11	0.1100	-104			
12	0.1200	-105			
13	0.1300	-106			
14	0.1400	-106			
15	0.1500	-106			
16	0.1600	-105			
17	0.1700	-103			
18	0.1800	-101			
19	0.1900	-99			
20	0.2000	-96			
21	0.2100	-92			
22	0.2200	-88			
23	0.2300	-83			
24	0.2400	-78			
25	0.2500	-73			
26	0.2600	-68			
27	0.2700	-62			
28	0.2800	-55			
29	0.2900	-48			
30	0.3000	-41			
31	0.3100	-34			
32	0.3200	-27			
33	0.3300	-19			
34	0.3400	-12			
35	0.3500	-4			
36	0.3600	4			
37	0.3700	11			
38	0.3800	19			
39	0.3900	26			
40	0.4000	34			
41	0.4100	41			
42	0.4200	48			
43	0.4300	54			
44	0.4400	61			
45	0.4500	67			
46	0.4600	73			
47	0.4700	78			
48	0.4800	83			
49	0.4900	88			
50	0.5000	92			
51	0.5100	96			
52	0.5200	99			
53	0.5300	102			
54	0.5400	104			
55	0.5500	106			
56	0.5600	106			
57	0.5700	107			
58	0.5800	107			
59	0.5900	106			
60	0.6000	106			
61	0.6100	104			
62	0.6200	102			
63	0.6300	99			
64	0.6400	96			
65	0.6500	92			
66	0.6600	88			
67	0.6700	83			
68	0.6800	78			
69	0.6900	73			
70	0.7000	67			
71	0.7100	61			
72	0.7200	54			
73	0.7300	48			
74	0.7400	40			
75	0.7500	33			
76	0.7600	26			
77	0.7700	18			
78	0.7800	11			
79	0.7900	3			
80	0.8000	-4			
81	0.8100	-12			
82	0.8200	-20			
83	0.8300	-27			
84	0.8400	-34			
85	0.8500	-41			
86	0.8600	-48			
87	0.8700	-55			
88	0.8800	-61			
89	0.8900	-67			
90	0.9000	-73			
91	0.9100	-78			
92	0.9200	-83			
93	0.9300	-88			
94	0.9400	-91			
95	0.9500	-95			
96	0.9600	-98			
97	0.9700	-100			
98	0.9800	-102			
99	0.9900	-104			
100	1.0000	-105			
101	1.0100	-105			
102	1.0200	-105			
103	1.0300	-104			
104	1.0400	-103			
105	1.0500	-101			
106	1.0600	-99			
107	1.0700	-96			
108	1.0800	-93			
109	1.0900	-89			
110	1.1000	-85			
111	1.1100	-80			
112	1.1200	-75			
113	1.1300	-69			
114	1.1400	-63			
115	1.1500	-57			
116	1.1600	-51			
117	1.1700	-44			
118	1.1800	-37			
119	1.1900	-30			
120	1.2000	-22			
121	1.2100	-15			
122	1.2200	-7			
123	1.2300	0			
124	1.2400	8			
125	1.2500	16			
126	1.2600	23			
127	1.2700	30			
128	1.2800	38			
129	1.2900	44			
130	1.3000	51			
131	1.3100	58			
132	1.3200	64			
133	1.3300	70			
134	1.3400	76			
135	1.3500	80			
136	1.3600	85			
137	1.3700	90			
138	1.3800	94			
139	1.3900	97			
140	1.4000	100			
141	1.4100	102			
142	1.4200	104			
143	1.4300	105			
144	1.4400	106			
145	1.4500	106			
146	1.4600	106			
147	1.4700	105			
148	1.4800	104			
149	1.4900	102			
150	1.5000	99			
151	1.5100	96			
152	1.5200	93			
153	1.5300	89			
154	1.5400	84			
155	1.5500	80			
156	1.5600	74			
157	1.5700	69			
158	1.5800	63			
159	1.5900	57			
160	1.6000	50			
161	1.6100	43			
162	1.6200	36			
163	1.6300	29			
164	1.6400	22			
165	1.6500	14			
166	1.6600	6			
167	1.6700	-1			
168	1.6800	-8			
169	1.6900	-16			
170	1.7000	-23			
171	1.7100	-31			
172	1.7200	-38			
173	1.7300	-45			
174	1.7400	-51			
175	1.7500	-58			
176	1.7600	-64			
177	1.7700	-70			
178	1.7800	-75			
179	1.7900	-80			
180	1.8000	-85			
181	1.8100	-89			
182	1.8200	-93			
183	1.8300	-96			
184	1.8400	-98			
185	1.8500	-101			
186	1.8600	-102			
187	1.8700	-104			
188	1.8800	-104			
189	1.8900	-104			
190	1.9000	-104			
191	1.9100	-103			
192	1.9200	-101			
193	1.9300	-99			
194	1.9400	-96			
195	1.9500	-94			
196	1.9600	-90			
197	1.9700	-86			
198	1.9800	-81			
199	1.9900	-76			
200	2.0000	-71			
201	2.0100	-65			
202	2.0200	-59			
203	2.0300	-53			
204	2.0400	-46			
205	2.0500	-40			
206	2.0600	-32			
207	2.0700	-25			
208	2.0800	-18			
209	2.0900	-10			
210	2.1000	-3			
211	2.1100	5			
212	2.1200	12			
213	2.1300	20			
214	2.1400	27			
215	2.1500	34			
216	2.1600	41			
217	2.1700	48			
218	2.1800	54			
219	2.1900	61			
220	2.2000	67			
221	2.2100	72			
222	2.2200	78			
223	2.2300	82			
224	2.2400	87			
225	2.2500	91			
226	2.2600	94			
227	2.2700	98			
228	2.2800	100			
229	2.2900	102			
230	2.3000	104			
231	2.3100	105			
232	2.3200	105			
233	2.3300	105			
234	2.3400	104			
235	2.3500	104			
236	2.3600	102			
237	2.3700	100			
238	2.3800	97			
239	2.3900	94			
240	2.4000	90			
241	2.4100	86			
242	2.4200	81			
243	2.4300	76			
244	2.4400	71			
245	2.4500	65			
246	2.4600	59			
247	2.4700	52			
248	2.4800	46			
249	2.4900	39			
250	2.5000	32			
251	2.5100	24			
252	2.5200	17			
253	2.5300	10			
254	2.5400	2			
255	2.5500	-5			
256	2.5600	-12			
257	2.5700	-20			
258	2.5800	-27			
259	2.5900	-34			
260	2.6000	-41			
261	2.6100	-48			
262	2.6200	-54			
263	2.6300	-61			
264	2.6400	-66			
265	2.6500	-72			
266	2.6600	-77			
267	2.6700	-82			
268	2.6800	-86			
269	2.6900	-90			
270	2.7000	-94			
271	2.7100	-96			
272	2.7200	-99			
273	2.7300	-101			
274	2.7400	-102			
275	2.7500	-103			
276	2.7600	-103			
277	2.7700	-103			
278	2.7800	-102			
279	2.7900	-101			
280	2.8000	-99			
281	2.8100	-97			
282	2.8200	-94			
283	2.8300	-90			
284	2.8400	-87			
285	2.8500	-82			
286	2.8600	-78			
287	2.8700	-73			
288	2.8800	-67			
289	2.8900	-62			
290	2.9000	-55			
291	2.9100	-49			
292	2.9200	-42			
293	2.9300	-35			
294	2.9400	-28			
295	2.9500	-21			
296	2.9600	-14			
297	2.9700	-6			
298	2.9800	1			
299	2.9900	9			
300	3.0000	16			
301	3.0100	24			
302	3.0200	31			
303	3.0300	38			
304	3.0400	45			
305	3.0500	51			
306	3.0600	58			
307	3.0700	64			
308	3.0800	70			
309	3.0900	75			
310	3.1000	80			
311	3.1100	84			
312	3.1200	89			
313	3.1300	92			
314	3.1400	96			
315	3.1500	98			
316	3.1600	100			
317	3.1700	102			
318	3.1800	104			
319	3.1900	104			
320	3.2000	104			
321	3.2100	104			
322	3.2200	103			
323	3.2300	102			
324	3.2400	100			
325	3.2500	97			
326	3.2600	94			
327	3.2700	91			
328	3.2800	87			
329	3.2900	82			
330	3.3000	78			
331	3.3100	72			
332	3.3200	67			
333	3.3300	61			
334	3.3400	55			
335	3.3500	48			
336	3.3600	42			
337	3.3700	35			
338	3.3800	28			
339	3.3900	20			
340	3.4000	13			
341	3.4100	6			
342	3.4200	-2			
343	3.4300	-9			
344	3.4400	-17			
345	3.4500	-24			
346	3.4600	-31			
347	3.4700	-38			
348	3.4800	-45			
349	3.4900	-51			
350	3.5000	-58			
351	3.5100	-64			
352	3.5200	-69			
353	3.5300	-74			
354	3.5400	-80			
355	3.5500	-84			
356	3.5600	-88			
357	3.5700	-92			
358	3.5800	-94			
359	3.5900	-97			
360	3.6000	-99			
361	3.6100	-101			
362	3.6200	-102			
363	3.6300	-102			
364	3.6400	-102			
365	3.6500	-102			
366	3.6600	-101			
367	3.6700	-99			
368	3.6800	-97			
369	3.6900	-94			
370	3.7000	-91			
371	3.7100	-88			
372	3.7200	-84			
373	3.7300	-79			
374	3.7400	-74			
375	3.7500	-69			
376	3.7600	-64			
377	3.7700	-58			
378	3.7800	-51			
379	3.7900	-45			
380	3.8000	-38			
381	3.8100	-31			
382	3.8200	-24			
383	3.8300	-16			
384	3.8400	-9			
385	3.8500	-2			
386	3.8600	6			
387	3.8700	13			
388	3.8800	20			
389	3.8900	28			
390	3.9000	34			
391	3.9100	42			
392	3.9200	48			
393	3.9300	54			
394	3.9400	61			
395	3.9500	66			
396	3.9600	72			
397	3.9700	77			
398	3.9800	82			
399	3.9900	86			
400	4.0000	90			
401	4.0100	94			
402	4.0200	96			
403	4.0300	99			
404	4.0400	101			
405	4.0500	102			
406	4.0600	103			
407	4.0700	104			
408	4.0800	104			
409	4.0900	103			
410	4.1000	102			
411	4.1100	100			
412	4.1200	98			
413	4.1300	95			
414	4.1400	92			
415	4.1500	88			
416	4.1600	84			
417	4.1700	79			
418	4.1800	74			
419	4.1900	69			
420	4.2000	63			
421	4.2100	57			
422	4.2200	51			
423	4.2300	44			
424	4.2400	37			
425	4.2500	30			
426	4.2600	23			
427	4.2700	16			
428	4.2800	9			
429	4.2900	1			
430	4.3000	-6			
431	4.3100	-14			
432	4.3200	-21			
433	4.3300	-28			
434	4.3400	-35			
435	4.3500	-42			
436	4.3600	-48			
437	4.3700	-54			
438	4.3800	-60			
439	4.3900	-66			
440	4.4000	-72			
441	4.4100	-77			
442	4.4200	-81			
443	4.4300	-86			
444	4.4400	-89			
445	4.4500	-92			
446	4.4600	-95			
447	4.4700	-98			
448	4.4800	-99			
449	4.4900	-100			
450	4.5000	-101			
451	4.5100	-102			
452	4.5200	-101			
453	4.5300	-100			
454	4.5400	-99			
455	4.5500	-97			
456	4.5600	-95			
457	4.5700	-92			
458	4.5800	-89			
459	4.5900	-85			
460	4.6000	-80			
461	4.6100	-76			
462	4.6200	-71			
463	4.6300	-65			
464	4.6400	-60			
465	4.6500	-54			
466	4.6600	-47			
467	4.6700	-40			
468	4.6800	-34			
469	4.6900	-27			
470	4.7000	-20			
471	4.7100	-12			
472	4.7200	-5			
473	4.7300	2			
474	4.7400	10			
475	4.7500	17			
476	4.7600	24			
477	4.7700	31			
478	4.7800	38			
479	4.7900	45			
480	4.8000	51			
481	4.8100	58			
482	4.8200	64			
483	4.8300	69			
484	4.8400	74			
485	4.8500	79			
486	4.8600	84			
487	4.8700	88			
488	4.8800	92			
489	4.8900	94			
490	4.9000	97			
491	4.9100	99			
492	4.9200	101			
493	4.9300	102			
494	4.9400	103			
495	4.9500	103			
496	4.9600	102			
497	4.9700	101			
498	4.9800	100			
499	4.9900	98			
500	5.0000	95			
