0.435290555966482	0.494483879328509
0.69828344887325	0.709036693995467
0.909175770153396	1.37637827727376
0.973049724153229	2.04004809694875
1.03586105597437	4.04982430724381
1.03628063269329	4.07490825080066
1.06745220331734	7.32319391634981
1.08098037348015	9.79117647058824
1.13456126300556	4.68106740119521
1.16312505575758	2.9789539662483
1.20630620719753	1.87997558322977
1.36236631286662	0.762656400384986
1.47695787189279	0.505792972459639
1.56831280922754	0.412470023980815
1.56895622041381	0.412247216567782
1.72340665877462	0.299220932516998
1.87643677905345	0.23231023708877
2.11676074312221	0.167980205278592
