2.73501122560263	0.494483879328509
4.38744430620709	0.709036693995467
5.7125198406715	1.37637827727376
6.11385172995472	2.04004809694875
6.50850696717771	4.04982430724381
6.51114324545327	4.07490825080066
6.707	7.32319391634981
6.792	9.79117647058824
7.12865865781163	4.68106740119521
7.30813026074844	2.9789539662483
7.57944543702303	1.87997558322977
8.56	0.762656400384986
9.28	0.505792972459639
9.854	0.412470023980815
9.8580426717121	0.412247216567782
10.8284833967081	0.299220932516998
11.79	0.23231023708877
13.3	0.167980205278592
