7.095	-0.3679
7.449	-0.2287
7.758	-0.174
8.203	-0.1261
8.577	-0.1203
9.522	-0.0791
10.09	-0.0571
12.87	-0.0071
6.98	-0.4668
6.521	0.4523
5.725	0.179
5.094	0.1367
4.343	0.1154
3.157	0.0628
7.301	-0.2412
6.741	-1.4904
