0.005	-151
0.01	-150
0.015	-150
0.02	-148
0.025	-148
0.03	-146
0.035	-145
0.04	-144
0.045	-142
0.05	-140
0.055	-139
0.06	-137
0.065	-135
0.07	-133
0.075	-131
0.08	-128
0.085	-126
0.09	-124
0.095	-121
0.1	-118
0.105	-115
0.11	-112
0.115	-109
0.12	-106
0.125	-103
0.13	-100
0.135	-97
0.14	-94
0.145	-90
0.15	-87
0.155	-83
0.16	-80
0.165	-76
0.17	-72
0.175	-69
0.18	-66
0.185	-62
0.19	-58
0.195	-54
0.2	-50
0.205	-46
0.21	-43
0.215	-39
0.22	-36
0.225	-32
0.23	-28
0.235	-24
0.24	-20
0.245	-17
0.25	-14
0.255	-10
0.26	-6
0.265	-3
0.27	0
0.275	4
0.28	8
0.285	10
0.29	14
0.295	17
0.3	20
0.305	23
0.31	26
0.315	29
0.32	32
0.325	34
0.33	37
0.335	39
0.34	42
0.345	44
0.35	46
0.355	48
0.36	50
0.365	52
0.37	54
0.375	55
0.38	57
0.385	58
0.39	59
0.395	60
0.4	62
0.405	62
0.41	63
0.415	64
0.42	64
0.425	65
0.43	65
0.435	65
0.44	65
0.445	65
0.45	65
0.455	64
0.46	64
0.465	64
0.47	63
0.475	62
0.48	61
0.485	60
0.49	59
0.495	58
0.5	56
0.505	54
0.51	53
0.515	52
0.52	50
0.525	48
0.53	46
0.535	44
0.54	42
0.545	39
0.55	37
0.555	34
0.56	32
0.565	29
0.57	26
0.575	24
0.58	21
0.585	18
0.59	15
0.595	12
0.6	9
0.605	6
0.61	2
0.615	-1
0.62	-4
0.625	-8
0.63	-11
0.635	-14
0.64	-18
0.645	-21
0.65	-24
0.655	-28
0.66	-31
0.665	-34
0.67	-38
0.675	-41
0.68	-45
0.685	-48
0.69	-52
0.695	-55
0.7	-58
0.705	-62
0.71	-65
0.715	-68
0.72	-72
0.725	-75
0.73	-78
0.735	-81
0.74	-84
0.745	-87
0.75	-90
0.755	-93
0.76	-96
0.765	-98
0.77	-101
0.775	-104
0.78	-106
0.785	-108
0.79	-111
0.795	-113
0.8	-115
0.805	-117
0.81	-119
0.815	-121
0.82	-123
0.825	-124
0.83	-126
0.835	-128
0.84	-129
0.845	-130
0.85	-131
0.855	-132
0.86	-133
0.865	-134
0.87	-135
0.875	-135
0.88	-136
0.885	-136
0.89	-136
0.895	-136
0.9	-136
0.905	-136
0.91	-136
0.915	-136
0.92	-135
0.925	-134
0.93	-134
0.935	-133
0.94	-132
0.945	-131
0.95	-130
0.955	-129
0.96	-128
0.965	-126
0.97	-124
0.975	-123
0.98	-121
0.985	-120
0.99	-118
0.995	-116
1	-114
1.005	-111
1.01	-109
1.015	-106
1.02	-104
1.025	-102
1.03	-99
1.035	-96
1.04	-94
1.045	-91
1.05	-88
1.055	-86
1.06	-82
1.065	-80
1.07	-76
1.075	-74
1.08	-70
1.085	-68
1.09	-64
1.095	-61
1.1	-58
1.105	-54
1.11	-52
1.115	-48
1.12	-45
1.125	-42
1.13	-38
1.135	-35
1.14	-32
1.145	-29
1.15	-26
1.155	-22
1.16	-20
1.165	-16
1.17	-13
1.175	-10
1.18	-7
1.185	-4
1.19	-2
1.195	2
1.2	4
1.205	7
1.21	10
1.215	12
1.22	15
1.225	18
1.23	20
1.235	22
1.24	24
1.245	26
1.25	29
1.255	31
1.26	33
1.265	34
1.27	36
1.275	38
1.28	40
1.285	41
1.29	42
1.295	44
1.3	45
1.305	46
1.31	47
1.315	48
1.32	48
1.325	49
1.33	50
1.335	50
1.34	50
1.345	50
1.35	51
1.355	51
1.36	51
1.365	50
1.37	50
1.375	50
1.38	49
1.385	48
1.39	48
1.395	47
1.4	46
1.405	45
1.41	44
1.415	43
1.42	42
1.425	40
1.43	38
1.435	37
1.44	36
1.445	34
1.45	32
1.455	30
1.46	28
1.465	26
1.47	24
1.475	22
1.48	19
1.485	17
1.49	14
1.495	12
1.5	10
1.505	7
1.51	4
1.515	2
1.52	-1
1.525	-4
1.53	-6
1.535	-10
1.54	-12
1.545	-15
1.55	-18
1.555	-21
1.56	-24
1.565	-27
1.57	-30
1.575	-33
1.58	-36
1.585	-39
1.59	-42
1.595	-44
1.6	-48
1.605	-51
1.61	-54
1.615	-56
1.62	-60
1.625	-62
1.63	-65
1.635	-68
1.64	-70
1.645	-73
1.65	-76
1.655	-78
1.66	-81
1.665	-84
1.67	-86
1.675	-88
1.68	-91
1.685	-93
1.69	-95
1.695	-97
1.7	-100
1.705	-102
1.71	-104
1.715	-105
1.72	-107
1.725	-109
1.73	-110
1.735	-112
1.74	-113
1.745	-114
1.75	-116
1.755	-117
1.76	-118
1.765	-119
1.77	-120
1.775	-120
1.78	-121
1.785	-122
1.79	-122
1.795	-122
1.8	-123
1.805	-123
1.81	-123
1.815	-123
1.82	-123
1.825	-122
1.83	-122
1.835	-122
1.84	-122
1.845	-121
1.85	-120
1.855	-119
1.86	-118
1.865	-118
1.87	-116
1.875	-115
1.88	-114
1.885	-112
1.89	-111
1.895	-110
1.9	-108
1.905	-106
1.91	-104
1.915	-102
1.92	-100
1.925	-99
1.93	-97
1.935	-94
1.94	-92
1.945	-90
1.95	-88
1.955	-86
1.96	-83
1.965	-81
1.97	-78
1.975	-76
1.98	-74
1.985	-71
1.99	-68
1.995	-66
2	-63
2.005	-60
2.01	-57
2.015	-54
2.02	-52
2.025	-49
2.03	-46
2.035	-44
2.04	-40
2.045	-38
2.05	-35
2.055	-32
2.06	-30
2.065	-27
2.07	-24
2.075	-22
2.08	-19
2.085	-16
2.09	-14
2.095	-11
2.1	-8
2.105	-6
2.11	-3
2.115	-1
2.12	2
2.125	4
2.13	6
2.135	8
2.14	10
2.145	12
2.15	14
2.155	16
2.16	18
2.165	20
2.17	22
2.175	24
2.18	25
2.185	26
2.19	28
2.195	29
2.2	30
2.205	32
2.21	33
2.215	34
2.22	35
2.225	36
2.23	36
2.235	37
2.24	38
2.245	38
2.25	38
2.255	38
2.26	38
2.265	39
2.27	39
2.275	38
2.28	38
2.285	38
2.29	38
2.295	37
2.3	37
2.305	36
2.31	35
2.315	34
2.32	34
2.325	32
2.33	32
2.335	30
2.34	29
2.345	28
2.35	26
2.355	25
2.36	24
2.365	22
2.37	20
2.375	18
2.38	16
2.385	15
2.39	13
2.395	11
2.4	9
2.405	6
2.41	4
2.415	2
2.42	0
2.425	-2
2.43	-4
2.435	-7
2.44	-9
2.445	-12
2.45	-14
2.455	-16
2.46	-19
2.465	-22
2.47	-24
2.475	-27
2.48	-29
2.485	-32
2.49	-34
2.495	-37
2.5	-40
2.505	-42
2.51	-45
2.515	-48
2.52	-50
2.525	-52
2.53	-55
2.535	-58
2.54	-60
2.545	-62
2.55	-65
2.555	-67
2.56	-70
2.565	-72
2.57	-74
2.575	-76
2.58	-78
2.585	-80
2.59	-82
2.595	-84
2.6	-86
2.605	-88
2.61	-90
2.615	-92
2.62	-94
2.625	-96
2.63	-97
2.635	-98
2.64	-100
2.645	-101
2.65	-102
2.655	-104
2.66	-105
2.665	-106
2.67	-107
2.675	-108
2.68	-108
2.685	-109
2.69	-110
2.695	-110
2.7	-111
2.705	-111
2.71	-112
2.715	-112
2.72	-112
2.725	-112
2.73	-112
2.735	-112
2.74	-112
2.745	-111
2.75	-111
2.755	-110
2.76	-110
2.765	-109
2.77	-108
2.775	-108
2.78	-106
2.785	-106
2.79	-104
2.795	-104
2.8	-102
2.805	-101
2.81	-100
2.815	-98
2.82	-97
2.825	-95
2.83	-94
2.835	-92
2.84	-90
2.845	-88
2.85	-87
2.855	-85
2.86	-83
2.865	-81
2.87	-79
2.875	-77
2.88	-75
2.885	-72
2.89	-70
2.895	-68
2.9	-66
2.905	-64
2.91	-61
2.915	-59
2.92	-56
2.925	-54
2.93	-52
2.935	-49
2.94	-47
2.945	-44
2.95	-42
2.955	-40
2.96	-37
2.965	-35
2.97	-32
2.975	-30
2.98	-28
2.985	-26
2.99	-23
2.995	-21
3	-18
3.005	-16
3.01	-14
3.015	-12
3.02	-10
3.025	-8
3.03	-5
3.035	-3
3.04	-1
3.045	0
3.05	2
3.055	4
3.06	6
3.065	8
3.07	10
3.075	11
3.08	12
3.085	14
3.09	16
3.095	17
3.1	18
3.105	20
3.11	20
3.115	22
3.12	22
3.125	24
3.13	24
3.135	25
3.14	26
3.145	26
3.15	27
3.155	27
3.16	28
3.165	28
3.17	28
3.175	28
3.18	28
3.185	28
3.19	28
3.195	28
3.2	28
3.205	27
3.21	27
3.215	26
3.22	26
3.225	25
3.23	24
3.235	24
3.24	22
3.245	22
3.25	20
3.255	20
3.26	18
3.265	17
3.27	16
3.275	14
3.28	13
3.285	12
3.29	10
3.295	8
3.3	7
3.305	5
3.31	4
3.315	2
3.32	0
3.325	-2
3.33	-4
3.335	-6
3.34	-8
3.345	-10
3.35	-12
3.355	-14
3.36	-16
3.365	-18
3.37	-20
3.375	-22
3.38	-25
3.385	-27
3.39	-29
3.395	-32
3.4	-34
3.405	-36
3.41	-38
3.415	-40
3.42	-42
3.425	-45
3.43	-47
3.435	-49
3.44	-52
3.445	-54
3.45	-56
3.455	-58
3.46	-60
3.465	-62
3.47	-64
3.475	-66
3.48	-68
3.485	-70
3.49	-72
3.495	-74
3.5	-76
3.505	-78
3.51	-79
3.515	-81
3.52	-82
3.525	-84
3.53	-86
3.535	-87
3.54	-88
3.545	-90
3.55	-91
3.555	-92
3.56	-93
3.565	-94
3.57	-95
3.575	-96
3.58	-97
3.585	-98
3.59	-99
3.595	-100
3.6	-100
3.605	-100
3.61	-101
3.615	-102
3.62	-102
3.625	-102
3.63	-102
3.635	-102
3.64	-102
3.645	-102
3.65	-102
3.655	-102
3.66	-102
3.665	-101
3.67	-100
3.675	-100
3.68	-100
3.685	-99
3.69	-98
3.695	-98
3.7	-96
3.705	-96
3.71	-94
3.715	-94
3.72	-92
3.725	-91
3.73	-90
3.735	-89
3.74	-88
3.745	-86
3.75	-84
3.755	-83
3.76	-82
3.765	-80
3.77	-78
3.775	-76
3.78	-75
3.785	-73
3.79	-71
3.795	-70
3.8	-68
3.805	-66
3.81	-64
3.815	-62
3.82	-60
3.825	-58
3.83	-56
3.835	-54
3.84	-52
3.845	-50
3.85	-47
3.855	-45
3.86	-43
3.865	-41
3.87	-39
3.875	-37
3.88	-35
3.885	-33
3.89	-31
3.895	-28
3.9	-26
3.905	-24
3.91	-22
3.915	-20
3.92	-18
3.925	-16
3.93	-15
3.935	-13
3.94	-11
3.945	-9
3.95	-8
3.955	-6
3.96	-4
3.965	-2
3.97	-1
3.975	0
3.98	2
3.985	4
3.99	5
3.995	6
4	8
4.005	9
4.01	10
4.015	11
4.02	12
4.025	13
4.03	14
4.035	15
4.04	16
4.045	16
4.05	17
4.055	17
4.06	18
4.065	18
4.07	18
4.075	19
4.08	19
4.085	19
4.09	19
4.095	19
4.1	19
4.105	19
4.11	19
4.115	18
4.12	18
4.125	18
4.13	18
4.135	17
4.14	16
4.145	16
4.15	15
4.155	14
4.16	13
4.165	12
4.17	12
4.175	10
4.18	9
4.185	8
4.19	7
4.195	6
4.2	4
4.205	3
4.21	2
4.215	0
4.22	-1
4.225	-3
4.23	-4
4.235	-6
4.24	-8
4.245	-9
4.25	-11
4.255	-12
4.26	-14
4.265	-16
4.27	-18
4.275	-20
4.28	-22
4.285	-24
4.29	-26
4.295	-27
4.3	-29
4.305	-31
4.31	-33
4.315	-35
4.32	-37
4.325	-39
4.33	-41
4.335	-43
4.34	-45
4.345	-46
4.35	-48
4.355	-50
4.36	-52
4.365	-54
4.37	-56
4.375	-58
4.38	-60
4.385	-62
4.39	-63
4.395	-65
4.4	-66
4.405	-68
4.41	-70
4.415	-71
4.42	-73
4.425	-74
4.43	-76
4.435	-77
4.44	-78
4.445	-80
4.45	-81
4.455	-82
4.46	-83
4.465	-84
4.47	-86
4.475	-86
4.48	-88
4.485	-88
4.49	-89
4.495	-90
4.5	-90
4.505	-91
4.51	-92
4.515	-92
4.52	-92
4.525	-93
4.53	-93
4.535	-94
4.54	-94
4.545	-94
4.55	-94
4.555	-94
4.56	-94
4.565	-94
4.57	-94
4.575	-93
4.58	-93
4.585	-92
4.59	-92
4.595	-92
4.6	-91
4.605	-90
4.61	-90
4.615	-89
4.62	-88
4.625	-87
4.63	-86
4.635	-85
4.64	-84
4.645	-83
4.65	-82
4.655	-80
4.66	-80
4.665	-78
4.67	-77
4.675	-76
4.68	-74
4.685	-72
4.69	-71
4.695	-70
4.7	-68
4.705	-66
4.71	-65
4.715	-63
4.72	-62
4.725	-60
4.73	-58
4.735	-56
4.74	-54
4.745	-53
4.75	-51
4.755	-49
4.76	-48
4.765	-46
4.77	-44
4.775	-42
4.78	-40
4.785	-38
4.79	-36
4.795	-35
4.8	-33
4.805	-31
4.81	-29
4.815	-28
4.82	-26
4.825	-24
4.83	-22
4.835	-21
4.84	-19
4.845	-18
4.85	-16
4.855	-14
4.86	-13
4.865	-11
4.87	-10
4.875	-8
4.88	-7
4.885	-6
4.89	-4
4.895	-3
4.9	-2
4.905	0
4.91	1
4.915	2
4.92	3
4.925	4
4.93	5
4.935	6
4.94	6
4.945	7
4.95	8
4.955	8
4.96	9
4.965	10
4.97	10
4.975	10
4.98	11
4.985	11
4.99	12
4.995	12
5	12
5.005	12
5.01	12
5.015	12
5.02	12
5.025	11
5.03	11
5.035	11
5.04	10
5.045	10
5.05	10
5.055	9
5.06	8
5.065	8
5.07	7
5.075	6
5.08	6
5.085	4
5.09	4
5.095	3
5.1	2
5.105	0
5.11	0
5.115	-2
5.12	-3
5.125	-4
5.13	-5
5.135	-6
5.14	-8
5.145	-9
5.15	-10
5.155	-12
5.16	-14
5.165	-15
5.17	-16
5.175	-18
5.18	-20
5.185	-21
5.19	-23
5.195	-24
5.2	-26
5.205	-28
5.21	-30
5.215	-31
5.22	-33
5.225	-34
5.23	-36
5.235	-38
5.24	-40
5.245	-41
5.25	-43
5.255	-44
5.26	-46
5.265	-48
5.27	-50
5.275	-51
5.28	-53
5.285	-54
5.29	-56
5.295	-58
5.3	-59
5.305	-60
5.31	-62
5.315	-64
5.32	-65
5.325	-66
5.33	-68
5.335	-69
5.34	-70
5.345	-72
5.35	-73
5.355	-74
5.36	-75
5.365	-76
5.37	-77
5.375	-78
5.38	-79
5.385	-80
5.39	-81
5.395	-82
5.4	-82
5.405	-83
5.41	-84
5.415	-84
5.42	-84
5.425	-85
5.43	-86
5.435	-86
5.44	-86
5.445	-86
5.45	-86
5.455	-87
5.46	-87
5.465	-87
5.47	-87
5.475	-87
5.48	-86
5.485	-86
5.49	-86
5.495	-86
5.5	-86
5.505	-85
5.51	-84
5.515	-84
5.52	-84
5.525	-83
5.53	-82
5.535	-82
5.54	-80
5.545	-80
5.55	-79
5.555	-78
5.56	-77
5.565	-76
5.57	-75
5.575	-74
5.58	-73
5.585	-72
5.59	-70
5.595	-69
5.6	-68
5.605	-66
5.61	-65
5.615	-64
5.62	-62
5.625	-61
5.63	-60
5.635	-58
5.64	-56
5.645	-55
5.65	-54
5.655	-52
5.66	-50
5.665	-49
5.67	-47
5.675	-46
5.68	-44
5.685	-42
5.69	-41
5.695	-40
5.7	-38
5.705	-36
5.71	-34
5.715	-33
5.72	-32
5.725	-30
5.73	-28
5.735	-27
5.74	-26
5.745	-24
5.75	-22
5.755	-21
5.76	-20
5.765	-18
5.77	-17
5.775	-16
5.78	-14
5.785	-13
5.79	-12
5.795	-10
5.8	-10
5.805	-8
5.81	-7
5.815	-6
5.82	-5
5.825	-4
5.83	-3
5.835	-2
5.84	-2
5.845	0
5.85	0
5.855	1
5.86	2
5.865	2
5.87	2
5.875	3
5.88	4
5.885	4
5.89	4
5.895	4
5.9	5
5.905	5
5.91	5
5.915	5
5.92	5
5.925	5
5.93	5
5.935	5
5.94	5
5.945	4
5.95	4
5.955	4
5.96	4
5.965	3
5.97	2
5.975	2
5.98	2
5.985	1
5.99	0
5.995	0
6	-1
6.005	-2
6.01	-3
6.015	-4
6.02	-5
6.025	-6
6.03	-7
6.035	-8
6.04	-9
6.045	-10
6.05	-11
6.055	-12
6.06	-14
6.065	-15
6.07	-16
6.075	-17
6.08	-18
6.085	-20
6.09	-21
6.095	-23
6.1	-24
6.105	-26
6.11	-27
6.115	-28
6.12	-30
6.125	-32
6.13	-33
6.135	-34
6.14	-36
6.145	-37
6.15	-38
6.155	-40
6.16	-42
6.165	-43
6.17	-44
6.175	-46
6.18	-47
6.185	-49
6.19	-50
6.195	-52
6.2	-53
6.205	-54
6.21	-56
6.215	-57
6.22	-58
6.225	-60
6.23	-61
6.235	-62
6.24	-64
6.245	-64
6.25	-66
6.255	-67
6.26	-68
6.265	-69
6.27	-70
6.275	-71
6.28	-72
6.285	-72
6.29	-74
6.295	-74
6.3	-75
6.305	-76
6.31	-76
6.315	-77
6.32	-78
6.325	-78
6.33	-78
6.335	-79
6.34	-80
6.345	-80
6.35	-80
6.355	-80
6.36	-80
6.365	-80
6.37	-81
6.375	-81
6.38	-81
6.385	-81
6.39	-80
6.395	-80
6.4	-80
6.405	-80
6.41	-80
6.415	-80
6.42	-79
6.425	-78
6.43	-78
6.435	-78
6.44	-77
6.445	-76
6.45	-76
6.455	-75
6.46	-74
6.465	-74
6.47	-72
6.475	-72
6.48	-71
6.485	-70
6.49	-69
6.495	-68
6.5	-67
6.505	-66
6.51	-65
6.515	-64
6.52	-62
6.525	-62
6.53	-60
6.535	-59
6.54	-58
6.545	-56
6.55	-55
6.555	-54
6.56	-52
6.565	-51
6.57	-50
6.575	-48
6.58	-47
6.585	-46
6.59	-44
6.595	-43
6.6	-42
6.605	-40
6.61	-39
6.615	-38
6.62	-36
6.625	-34
6.63	-33
6.635	-32
6.64	-30
6.645	-29
6.65	-28
6.655	-26
6.66	-25
6.665	-24
6.67	-23
6.675	-22
6.68	-20
6.685	-19
6.69	-18
6.695	-17
6.7	-16
6.705	-15
6.71	-14
6.715	-13
6.72	-12
6.725	-11
6.73	-10
6.735	-9
6.74	-8
6.745	-8
6.75	-6
6.755	-6
6.76	-5
6.765	-4
6.77	-4
6.775	-4
6.78	-3
6.785	-2
6.79	-2
6.795	-2
6.8	-2
6.805	-1
6.81	-1
6.815	0
6.82	0
6.825	0
6.83	0
6.835	0
6.84	0
6.845	0
6.85	0
6.855	-1
6.86	-1
6.865	-1
6.87	-2
6.875	-2
6.88	-2
6.885	-3
6.89	-3
6.895	-4
6.9	-4
6.905	-5
6.91	-6
6.915	-6
6.92	-7
6.925	-8
6.93	-8
6.935	-10
6.94	-10
6.945	-11
6.95	-12
6.955	-13
6.96	-14
6.965	-15
6.97	-16
6.975	-17
6.98	-18
6.985	-20
6.99	-20
6.995	-22
7	-23
7.005	-24
7.01	-26
7.015	-26
7.02	-28
7.025	-29
7.03	-30
7.035	-32
7.04	-33
7.045	-34
7.05	-36
7.055	-37
7.06	-38
7.065	-39
7.07	-40
7.075	-42
7.08	-43
7.085	-44
7.09	-46
7.095	-47
7.1	-48
7.105	-50
7.11	-51
7.115	-52
7.12	-53
7.125	-54
7.13	-56
7.135	-57
7.14	-58
7.145	-59
7.15	-60
7.155	-61
7.16	-62
7.165	-63
7.17	-64
7.175	-65
7.18	-66
7.185	-66
7.19	-68
7.195	-68
7.2	-69
7.205	-70
7.21	-70
7.215	-71
7.22	-72
7.225	-72
7.23	-73
7.235	-73
7.24	-74
7.245	-74
7.25	-74
7.255	-75
7.26	-75
7.265	-75
7.27	-76
7.275	-76
7.28	-76
7.285	-76
7.29	-76
7.295	-76
7.3	-76
7.305	-76
7.31	-76
7.315	-75
7.32	-75
7.325	-75
7.33	-74
7.335	-74
7.34	-74
7.345	-73
7.35	-73
7.355	-72
7.36	-72
7.365	-71
7.37	-70
7.375	-70
7.38	-69
7.385	-68
7.39	-68
7.395	-67
7.4	-66
7.405	-65
7.41	-64
7.415	-63
7.42	-62
7.425	-61
7.43	-60
7.435	-59
7.44	-58
7.445	-57
7.45	-56
7.455	-55
7.46	-54
7.465	-52
7.47	-52
7.475	-50
7.48	-49
7.485	-48
7.49	-47
7.495	-46
7.5	-44
7.505	-43
7.51	-42
7.515	-40
7.52	-40
7.525	-38
7.53	-37
7.535	-36
7.54	-34
7.545	-33
7.55	-32
7.555	-31
7.56	-30
7.565	-28
7.57	-28
7.575	-26
7.58	-25
7.585	-24
7.59	-23
7.595	-22
7.6	-21
7.605	-20
7.61	-19
7.615	-18
7.62	-17
7.625	-16
7.63	-16
7.635	-14
7.64	-14
7.645	-13
7.65	-12
7.655	-12
7.66	-11
7.665	-10
7.67	-10
7.675	-9
7.68	-8
7.685	-8
7.69	-8
7.695	-7
7.7	-6
7.705	-6
7.71	-6
7.715	-6
7.72	-6
7.725	-6
7.73	-5
7.735	-5
7.74	-5
7.745	-5
7.75	-5
7.755	-5
7.76	-5
7.765	-5
7.77	-6
7.775	-6
7.78	-6
7.785	-6
7.79	-6
7.795	-7
7.8	-7
7.805	-8
7.81	-8
7.815	-9
7.82	-10
7.825	-10
7.83	-10
7.835	-11
7.84	-12
7.845	-12
7.85	-14
7.855	-14
7.86	-15
7.865	-16
7.87	-16
7.875	-18
7.88	-18
7.885	-20
7.89	-20
7.895	-21
7.9	-22
7.905	-24
7.91	-24
7.915	-26
7.92	-26
7.925	-28
7.93	-29
7.935	-30
7.94	-31
7.945	-32
7.95	-33
7.955	-34
7.96	-36
7.965	-36
7.97	-38
7.975	-39
7.98	-40
7.985	-41
7.99	-42
7.995	-44
8	-44
8.005	-46
8.01	-47
8.015	-48
8.02	-49
8.025	-50
8.03	-51
8.035	-52
8.04	-53
8.045	-54
8.05	-55
8.055	-56
8.06	-57
8.065	-58
8.07	-59
8.075	-60
8.08	-60
8.085	-62
8.09	-62
8.095	-63
8.1	-64
8.105	-64
8.11	-65
8.115	-66
8.12	-66
8.125	-67
8.13	-68
8.135	-68
8.14	-68
8.145	-69
8.15	-70
8.155	-70
8.16	-70
8.165	-70
8.17	-70
8.175	-71
8.18	-71
8.185	-71
8.19	-72
8.195	-72
8.2	-72
8.205	-72
8.21	-72
8.215	-72
8.22	-71
8.225	-71
8.23	-71
8.235	-70
8.24	-70
8.245	-70
8.25	-70
8.255	-70
8.26	-69
8.265	-68
8.27	-68
8.275	-68
8.28	-67
8.285	-66
8.29	-66
8.295	-65
8.3	-64
8.305	-64
8.31	-63
8.315	-62
8.32	-62
8.325	-60
8.33	-60
8.335	-59
8.34	-58
8.345	-57
8.35	-56
8.355	-56
8.36	-54
8.365	-54
8.37	-52
8.375	-52
8.38	-50
8.385	-50
8.39	-48
8.395	-48
8.4	-46
8.405	-45
8.41	-44
8.415	-43
8.42	-42
8.425	-41
8.43	-40
8.435	-39
8.44	-38
8.445	-36
8.45	-36
8.455	-34
8.46	-34
8.465	-32
8.47	-32
8.475	-30
8.48	-30
8.485	-28
8.49	-28
8.495	-26
8.5	-26
8.505	-24
8.51	-24
8.515	-22
8.52	-22
8.525	-21
8.53	-20
8.535	-19
8.54	-18
8.545	-18
8.55	-17
8.555	-16
8.56	-16
8.565	-15
8.57	-14
8.575	-14
8.58	-13
8.585	-13
8.59	-12
8.595	-12
8.6	-12
8.605	-11
8.61	-10
8.615	-10
8.62	-10
8.625	-10
8.63	-10
8.635	-10
8.64	-9
8.645	-9
8.65	-9
8.655	-9
8.66	-9
8.665	-9
8.67	-9
8.675	-9
8.68	-10
8.685	-10
8.69	-10
8.695	-10
8.7	-10
8.705	-10
8.71	-11
8.715	-12
8.72	-12
8.725	-12
8.73	-13
8.735	-13
8.74	-14
8.745	-14
8.75	-15
8.755	-16
8.76	-16
8.765	-17
8.77	-18
8.775	-18
8.78	-19
8.785	-20
8.79	-20
8.795	-22
8.8	-22
8.805	-23
8.81	-24
8.815	-25
8.82	-26
8.825	-27
8.83	-28
8.835	-28
8.84	-30
8.845	-30
8.85	-32
8.855	-32
8.86	-34
8.865	-34
8.87	-36
8.875	-36
8.88	-38
8.885	-38
8.89	-40
8.895	-40
8.9	-42
8.905	-42
8.91	-44
8.915	-44
8.92	-46
8.925	-46
8.93	-48
8.935	-48
8.94	-50
8.945	-50
8.95	-51
8.955	-52
8.96	-53
8.965	-54
8.97	-54
8.975	-56
8.98	-56
8.985	-57
8.99	-58
8.995	-58
9	-59
9.005	-60
9.01	-61
9.015	-61
9.02	-62
9.025	-62
9.03	-63
9.035	-64
9.04	-64
9.045	-64
9.05	-65
9.055	-65
9.06	-66
9.065	-66
9.07	-66
9.075	-66
9.08	-67
9.085	-67
9.09	-67
9.095	-68
9.1	-68
9.105	-68
9.11	-68
9.115	-68
9.12	-68
9.125	-68
9.13	-68
9.135	-68
9.14	-67
9.145	-67
9.15	-67
9.155	-66
9.16	-66
9.165	-66
9.17	-66
9.175	-65
9.18	-65
9.185	-64
9.19	-64
9.195	-63
9.2	-63
9.205	-62
9.21	-62
9.215	-61
9.22	-60
9.225	-60
9.23	-59
9.235	-58
9.24	-58
9.245	-57
9.25	-56
9.255	-56
9.26	-54
9.265	-54
9.27	-53
9.275	-52
9.28	-51
9.285	-50
9.29	-50
9.295	-48
9.3	-48
9.305	-46
9.31	-46
9.315	-45
9.32	-44
9.325	-43
9.33	-42
9.335	-41
9.34	-40
9.345	-39
9.35	-38
9.355	-37
9.36	-36
9.365	-36
9.37	-34
9.375	-34
9.38	-32
9.385	-32
9.39	-31
9.395	-30
9.4	-29
9.405	-28
9.41	-27
9.415	-26
9.42	-26
9.425	-25
9.43	-24
9.435	-24
9.44	-22
9.445	-22
9.45	-21
9.455	-20
9.46	-20
9.465	-19
9.47	-19
9.475	-18
9.48	-18
9.485	-17
9.49	-16
9.495	-16
9.5	-16
9.505	-15
9.51	-15
9.515	-14
9.52	-14
9.525	-14
9.53	-14
9.535	-14
9.54	-13
9.545	-13
9.55	-13
9.555	-13
9.56	-13
9.565	-12
9.57	-12
9.575	-12
9.58	-13
9.585	-13
9.59	-13
9.595	-13
9.6	-13
9.605	-14
9.61	-14
9.615	-14
9.62	-14
9.625	-14
9.63	-15
9.635	-16
9.64	-16
9.645	-16
9.65	-16
9.655	-17
9.66	-18
9.665	-18
9.67	-19
9.675	-20
9.68	-20
9.685	-20
9.69	-21
9.695	-22
9.7	-22
9.705	-24
9.71	-24
9.715	-25
9.72	-26
9.725	-26
9.73	-27
9.735	-28
9.74	-29
9.745	-30
9.75	-30
9.755	-32
9.76	-32
9.765	-33
9.77	-34
9.775	-35
9.78	-36
9.785	-36
9.79	-38
9.795	-38
9.8	-39
9.805	-40
9.81	-41
9.815	-42
9.82	-43
9.825	-44
9.83	-44
9.835	-46
9.84	-46
9.845	-47
9.85	-48
9.855	-49
9.86	-50
9.865	-50
9.87	-51
9.875	-52
9.88	-52
9.885	-53
9.89	-54
9.895	-55
9.9	-56
9.905	-56
9.91	-57
9.915	-57
9.92	-58
9.925	-58
9.93	-59
9.935	-60
9.94	-60
9.945	-60
9.95	-61
9.955	-62
9.96	-62
9.965	-62
9.97	-62
9.975	-63
9.98	-63
9.985	-63
9.99	-64
9.995	-64
10	-64
10.005	-64
10.01	-64
10.015	-64
10.02	-64
10.025	-64
10.03	-64
10.035	-64
10.04	-64
10.045	-64
10.05	-64
10.055	-64
10.06	-64
10.065	-63
10.07	-63
10.075	-63
10.08	-62
10.085	-62
10.09	-62
10.095	-62
10.1	-61
10.105	-60
10.11	-60
10.115	-60
10.12	-59
10.125	-58
10.13	-58
10.135	-58
10.14	-57
10.145	-56
10.15	-56
10.155	-55
10.16	-54
10.165	-54
10.17	-53
10.175	-52
10.18	-52
10.185	-50
10.19	-50
10.195	-49
10.2	-48
10.205	-48
10.21	-47
10.215	-46
10.22	-45
10.225	-44
10.23	-44
10.235	-43
10.24	-42
10.245	-41
10.25	-40
10.255	-40
10.26	-38
10.265	-38
10.27	-37
10.275	-36
10.28	-35
10.285	-34
10.29	-34
10.295	-33
10.3	-32
10.305	-31
10.31	-30
10.315	-30
10.32	-29
10.325	-28
10.33	-28
10.335	-27
10.34	-26
10.345	-26
10.35	-25
10.355	-24
10.36	-24
10.365	-23
10.37	-22
10.375	-22
10.38	-22
10.385	-21
10.39	-20
10.395	-20
10.4	-20
10.405	-19
10.41	-18
10.415	-18
10.42	-18
10.425	-18
10.43	-17
10.435	-17
10.44	-17
10.445	-16
10.45	-16
10.455	-16
10.46	-16
10.465	-16
10.47	-16
10.475	-16
10.48	-16
10.485	-16
10.49	-16
10.495	-16
10.5	-16
10.505	-16
10.51	-16
10.515	-16
10.52	-17
10.525	-17
10.53	-17
10.535	-18
10.54	-18
10.545	-18
10.55	-18
10.555	-19
10.56	-19
10.565	-20
10.57	-20
10.575	-20
10.58	-21
10.585	-22
10.59	-22
10.595	-23
10.6	-23
10.605	-24
10.61	-24
10.615	-25
10.62	-26
10.625	-26
10.63	-27
10.635	-28
10.64	-28
10.645	-29
10.65	-30
10.655	-30
10.66	-32
10.665	-32
10.67	-33
10.675	-34
10.68	-34
10.685	-35
10.69	-36
10.695	-36
10.7	-38
10.705	-38
10.71	-39
10.715	-40
10.72	-40
10.725	-42
10.73	-42
10.735	-43
10.74	-44
10.745	-44
10.75	-45
10.755	-46
10.76	-47
10.765	-48
10.77	-48
10.775	-49
10.78	-50
10.785	-50
10.79	-51
10.795	-52
10.8	-52
10.805	-53
10.81	-53
10.815	-54
10.82	-54
10.825	-55
10.83	-56
10.835	-56
10.84	-56
10.845	-57
10.85	-58
10.855	-58
10.86	-58
10.865	-58
10.87	-59
10.875	-59
10.88	-60
10.885	-60
10.89	-60
10.895	-60
10.9	-60
10.905	-61
10.91	-61
10.915	-61
10.92	-61
10.925	-61
10.93	-61
10.935	-61
10.94	-61
10.945	-61
10.95	-61
10.955	-61
10.96	-61
10.965	-61
10.97	-60
10.975	-60
10.98	-60
10.985	-60
10.99	-60
10.995	-60
11	-59
11.005	-59
11.01	-58
11.015	-58
11.02	-58
11.025	-57
11.03	-57
11.035	-56
11.04	-56
11.045	-56
11.05	-55
11.055	-54
11.06	-54
11.065	-53
11.07	-53
11.075	-52
11.08	-52
11.085	-51
11.09	-50
11.095	-50
11.1	-49
11.105	-48
11.11	-48
11.115	-47
11.12	-46
11.125	-46
11.13	-45
11.135	-44
11.14	-43
11.145	-42
11.15	-42
11.155	-41
11.16	-40
11.165	-40
11.17	-39
11.175	-38
11.18	-38
11.185	-36
11.19	-36
11.195	-35
11.2	-34
11.205	-34
11.21	-33
11.215	-32
11.22	-32
11.225	-31
11.23	-30
11.235	-30
11.24	-29
11.245	-28
11.25	-28
11.255	-27
11.26	-27
11.265	-26
11.27	-26
11.275	-25
11.28	-24
11.285	-24
11.29	-24
11.295	-23
11.3	-22
11.305	-22
11.31	-22
11.315	-22
11.32	-21
11.325	-21
11.33	-20
11.335	-20
11.34	-20
11.345	-20
11.35	-20
11.355	-19
11.36	-19
11.365	-19
11.37	-19
11.375	-19
11.38	-19
11.385	-18
11.39	-18
11.395	-18
11.4	-18
11.405	-18
11.41	-19
11.415	-19
11.42	-19
11.425	-19
11.43	-19
11.435	-20
11.44	-20
11.445	-20
11.45	-20
11.455	-20
11.46	-21
11.465	-21
11.47	-22
11.475	-22
11.48	-22
11.485	-22
11.49	-23
11.495	-24
11.5	-24
11.505	-24
11.51	-25
11.515	-26
11.52	-26
11.525	-26
11.53	-27
11.535	-28
11.54	-28
11.545	-29
11.55	-30
11.555	-30
11.56	-31
11.565	-32
11.57	-32
11.575	-33
11.58	-34
11.585	-34
11.59	-35
11.595	-36
11.6	-36
11.605	-37
11.61	-38
11.615	-38
11.62	-39
11.625	-40
11.63	-40
11.635	-41
11.64	-42
11.645	-42
11.65	-43
11.655	-44
11.66	-44
11.665	-45
11.67	-46
11.675	-46
11.68	-47
11.685	-48
11.69	-48
11.695	-48
11.7	-49
11.705	-50
11.71	-50
11.715	-51
11.72	-52
11.725	-52
11.73	-52
11.735	-53
11.74	-54
11.745	-54
11.75	-54
11.755	-55
11.76	-55
11.765	-56
11.77	-56
11.775	-56
11.78	-56
11.785	-57
11.79	-57
11.795	-58
11.8	-58
11.805	-58
11.81	-58
11.815	-58
11.82	-58
11.825	-58
11.83	-58
11.835	-58
11.84	-58
11.845	-59
11.85	-59
11.855	-59
11.86	-58
11.865	-58
11.87	-58
11.875	-58
11.88	-58
11.885	-58
11.89	-58
11.895	-58
11.9	-58
11.905	-57
11.91	-57
11.915	-57
11.92	-56
11.925	-56
11.93	-56
11.935	-56
11.94	-55
11.945	-54
11.95	-54
11.955	-54
11.96	-53
11.965	-53
11.97	-52
11.975	-52
11.98	-52
11.985	-51
11.99	-50
11.995	-50
12	-49
12.005	-48
12.01	-48
12.015	-48
12.02	-47
12.025	-46
12.03	-46
12.035	-45
12.04	-44
12.045	-44
12.05	-43
12.055	-42
12.06	-42
12.065	-41
12.07	-40
12.075	-40
12.08	-39
12.085	-38
12.09	-38
12.095	-37
12.1	-36
12.105	-36
12.11	-35
12.115	-34
12.12	-34
12.125	-34
12.13	-33
12.135	-32
12.14	-32
12.145	-31
12.15	-30
12.155	-30
12.16	-30
12.165	-29
12.17	-28
12.175	-28
12.18	-28
12.185	-27
12.19	-26
12.195	-26
12.2	-26
12.205	-25
12.21	-25
12.215	-24
12.22	-24
12.225	-24
12.23	-24
12.235	-23
12.24	-23
12.245	-22
12.25	-22
12.255	-22
12.26	-22
12.265	-22
12.27	-22
12.275	-22
12.28	-21
12.285	-21
12.29	-21
12.295	-21
12.3	-21
12.305	-21
12.31	-21
12.315	-21
12.32	-21
12.325	-21
12.33	-21
12.335	-22
12.34	-22
12.345	-22
12.35	-22
12.355	-22
12.36	-22
12.365	-22
12.37	-23
12.375	-23
12.38	-24
12.385	-24
12.39	-24
12.395	-24
12.4	-25
12.405	-25
12.41	-26
12.415	-26
12.42	-26
12.425	-27
12.43	-28
12.435	-28
12.44	-28
12.445	-29
12.45	-30
12.455	-30
12.46	-30
12.465	-31
12.47	-32
12.475	-32
12.48	-33
12.485	-33
12.49	-34
12.495	-34
12.5	-35
12.505	-36
12.51	-36
12.515	-37
12.52	-38
12.525	-38
12.53	-39
12.535	-40
12.54	-40
12.545	-40
12.55	-41
12.555	-42
12.56	-42
12.565	-43
12.57	-44
12.575	-44
12.58	-44
12.585	-45
12.59	-46
12.595	-46
12.6	-47
12.605	-48
12.61	-48
12.615	-48
12.62	-49
12.625	-50
12.63	-50
12.635	-50
12.64	-51
12.645	-51
12.65	-52
12.655	-52
12.66	-52
12.665	-53
12.67	-53
12.675	-54
12.68	-54
12.685	-54
12.69	-54
12.695	-55
12.7	-55
12.705	-55
12.71	-56
12.715	-56
12.72	-56
12.725	-56
12.73	-56
12.735	-56
12.74	-56
12.745	-56
12.75	-56
12.755	-56
12.76	-56
12.765	-56
12.77	-56
12.775	-56
12.78	-56
12.785	-56
12.79	-56
12.795	-56
12.8	-56
12.805	-56
12.81	-56
12.815	-55
12.82	-55
12.825	-55
12.83	-54
12.835	-54
12.84	-54
12.845	-54
12.85	-53
12.855	-53
12.86	-52
12.865	-52
12.87	-52
12.875	-51
12.88	-51
12.885	-50
12.89	-50
12.895	-50
12.9	-49
12.905	-48
12.91	-48
12.915	-48
12.92	-47
12.925	-46
12.93	-46
12.935	-46
12.94	-45
12.945	-44
12.95	-44
12.955	-43
12.96	-43
12.965	-42
12.97	-42
12.975	-41
12.98	-40
12.985	-40
12.99	-39
12.995	-39
13	-38
13.005	-38
13.01	-37
13.015	-36
13.02	-36
13.025	-35
13.03	-35
13.035	-34
13.04	-34
13.045	-33
13.05	-33
13.055	-32
13.06	-32
13.065	-31
13.07	-30
13.075	-30
13.08	-30
13.085	-29
13.09	-29
13.095	-28
13.1	-28
13.105	-28
13.11	-27
13.115	-27
13.12	-26
13.125	-26
13.13	-26
13.135	-26
13.14	-25
13.145	-25
13.15	-25
13.155	-24
13.16	-24
13.165	-24
13.17	-24
13.175	-24
13.18	-24
13.185	-24
13.19	-24
13.195	-23
13.2	-23
13.205	-23
13.21	-23
13.215	-23
13.22	-23
13.225	-23
13.23	-23
13.235	-23
13.24	-24
13.245	-24
13.25	-24
13.255	-24
13.26	-24
13.265	-24
13.27	-24
13.275	-24
13.28	-24
13.285	-25
13.29	-25
13.295	-26
13.3	-26
13.305	-26
13.31	-26
13.315	-27
13.32	-27
13.325	-28
13.33	-28
13.335	-28
13.34	-28
13.345	-29
13.35	-30
13.355	-30
13.36	-30
13.365	-31
13.37	-31
13.375	-32
13.38	-32
13.385	-33
13.39	-33
13.395	-34
13.4	-34
13.405	-35
13.41	-36
13.415	-36
13.42	-36
13.425	-37
13.43	-38
13.435	-38
13.44	-38
13.445	-39
13.45	-40
13.455	-40
13.46	-40
13.465	-41
13.47	-42
13.475	-42
13.48	-43
13.485	-43
13.49	-44
13.495	-44
13.5	-45
13.505	-46
13.51	-46
13.515	-46
13.52	-47
13.525	-47
13.53	-48
13.535	-48
13.54	-48
13.545	-49
13.55	-49
13.555	-50
13.56	-50
13.565	-50
13.57	-51
13.575	-51
13.58	-52
13.585	-52
13.59	-52
13.595	-52
13.6	-52
13.605	-53
13.61	-53
13.615	-53
13.62	-54
13.625	-54
13.63	-54
13.635	-54
13.64	-54
13.645	-54
13.65	-54
13.655	-54
13.66	-54
13.665	-54
13.67	-54
13.675	-54
13.68	-54
13.685	-54
13.69	-54
13.695	-54
13.7	-54
13.705	-54
13.71	-54
13.715	-54
13.72	-54
13.725	-54
13.73	-53
13.735	-53
13.74	-53
13.745	-52
13.75	-52
13.755	-52
13.76	-52
13.765	-52
13.77	-51
13.775	-51
13.78	-50
13.785	-50
13.79	-50
13.795	-50
13.8	-49
13.805	-48
13.81	-48
13.815	-48
13.82	-47
13.825	-47
13.83	-46
13.835	-46
13.84	-46
13.845	-45
13.85	-44
13.855	-44
13.86	-44
13.865	-43
13.87	-42
13.875	-42
13.88	-42
13.885	-41
13.89	-40
13.895	-40
13.9	-40
13.905	-39
13.91	-38
13.915	-38
13.92	-38
13.925	-37
13.93	-36
13.935	-36
13.94	-36
13.945	-35
13.95	-34
13.955	-34
13.96	-34
13.965	-33
13.97	-33
13.975	-32
13.98	-32
13.985	-32
13.99	-31
13.995	-30
14	-30
14.005	-30
14.01	-30
14.015	-29
14.02	-29
14.025	-28
14.03	-28
14.035	-28
14.04	-28
14.045	-27
14.05	-27
14.055	-27
14.06	-26
14.065	-26
14.07	-26
14.075	-26
14.08	-26
14.085	-26
14.09	-26
14.095	-26
14.1	-25
14.105	-25
14.11	-25
14.115	-25
14.12	-25
14.125	-25
14.13	-25
14.135	-25
14.14	-25
14.145	-25
14.15	-25
14.155	-25
14.16	-25
14.165	-26
14.17	-26
14.175	-26
14.18	-26
14.185	-26
14.19	-26
14.195	-26
14.2	-26
14.205	-27
14.21	-27
14.215	-28
14.22	-28
14.225	-28
14.23	-28
14.235	-28
14.24	-29
14.245	-30
14.25	-30
14.255	-30
14.26	-30
14.265	-31
14.27	-31
14.275	-32
14.28	-32
14.285	-32
14.29	-33
14.295	-33
14.3	-34
14.305	-34
14.31	-34
14.315	-35
14.32	-36
14.325	-36
14.33	-36
14.335	-37
14.34	-38
14.345	-38
14.35	-38
14.355	-39
14.36	-40
14.365	-40
14.37	-40
14.375	-41
14.38	-41
14.385	-42
14.39	-42
14.395	-42
14.4	-43
14.405	-44
14.41	-44
14.415	-44
14.42	-45
14.425	-45
14.43	-46
14.435	-46
14.44	-46
14.445	-47
14.45	-47
14.455	-48
14.46	-48
14.465	-48
14.47	-48
14.475	-49
14.48	-49
14.485	-50
14.49	-50
14.495	-50
14.5	-50
14.505	-51
14.51	-51
14.515	-51
14.52	-52
14.525	-52
14.53	-52
14.535	-52
14.54	-52
14.545	-52
14.55	-52
14.555	-52
14.56	-52
14.565	-52
14.57	-52
14.575	-52
14.58	-52
14.585	-52
14.59	-52
14.595	-52
14.6	-52
14.605	-52
14.61	-52
14.615	-52
14.62	-52
14.625	-52
14.63	-52
14.635	-52
14.64	-52
14.645	-52
14.65	-51
14.655	-51
14.66	-51
14.665	-50
14.67	-50
14.675	-50
14.68	-50
14.685	-50
14.69	-49
14.695	-49
14.7	-48
14.705	-48
14.71	-48
14.715	-48
14.72	-47
14.725	-47
14.73	-46
14.735	-46
14.74	-46
14.745	-45
14.75	-45
14.755	-44
14.76	-44
14.765	-44
14.77	-43
14.775	-43
14.78	-42
14.785	-42
14.79	-42
14.795	-41
14.8	-40
14.805	-40
14.81	-40
14.815	-39
14.82	-39
14.825	-38
14.83	-38
14.835	-38
14.84	-37
14.845	-36
14.85	-36
14.855	-36
14.86	-35
14.865	-35
14.87	-34
14.875	-34
14.88	-34
14.885	-33
14.89	-33
14.895	-32
14.9	-32
14.905	-32
14.91	-32
14.915	-31
14.92	-31
14.925	-30
14.93	-30
14.935	-30
14.94	-30
14.945	-29
14.95	-29
14.955	-29
14.96	-28
14.965	-28
14.97	-28
14.975	-28
14.98	-28
14.985	-28
14.99	-28
14.995	-27
15	-27
15.005	-27
15.01	-27
15.015	-27
15.02	-27
15.025	-27
15.03	-27
15.035	-26
15.04	-26
15.045	-26
15.05	-26
15.055	-27
15.06	-27
15.065	-27
15.07	-27
15.075	-27
15.08	-27
15.085	-27
15.09	-28
15.095	-28
15.1	-28
15.105	-28
15.11	-28
15.115	-28
15.12	-28
15.125	-29
15.13	-29
15.135	-29
15.14	-30
15.145	-30
15.15	-30
15.155	-30
15.16	-31
15.165	-31
15.17	-32
15.175	-32
15.18	-32
15.185	-32
15.19	-33
15.195	-33
15.2	-34
15.205	-34
15.21	-34
15.215	-34
15.22	-35
15.225	-36
15.23	-36
15.235	-36
15.24	-36
15.245	-37
15.25	-38
15.255	-38
15.26	-38
15.265	-39
15.27	-39
15.275	-40
15.28	-40
15.285	-40
15.29	-41
15.295	-41
15.3	-42
15.305	-42
15.31	-42
15.315	-43
15.32	-43
15.325	-44
15.33	-44
15.335	-44
15.34	-45
15.345	-45
15.35	-46
15.355	-46
15.36	-46
15.365	-46
15.37	-47
15.375	-47
15.38	-48
15.385	-48
15.39	-48
15.395	-48
15.4	-48
15.405	-49
15.41	-49
15.415	-49
15.42	-50
15.425	-50
15.43	-50
15.435	-50
15.44	-50
15.445	-50
15.45	-50
15.455	-50
15.46	-50
15.465	-51
15.47	-51
15.475	-51
15.48	-51
15.485	-51
15.49	-51
15.495	-51
15.5	-51
15.505	-51
15.51	-51
15.515	-51
15.52	-51
15.525	-51
15.53	-51
15.535	-50
15.54	-50
15.545	-50
15.55	-50
15.555	-50
15.56	-50
15.565	-50
15.57	-50
15.575	-50
15.58	-49
15.585	-49
15.59	-48
15.595	-48
15.6	-48
15.605	-48
15.61	-48
15.615	-47
15.62	-47
15.625	-47
15.63	-46
15.635	-46
15.64	-46
15.645	-46
15.65	-45
15.655	-45
15.66	-44
15.665	-44
15.67	-44
15.675	-43
15.68	-43
15.685	-42
15.69	-42
15.695	-42
15.7	-42
15.705	-41
15.71	-40
15.715	-40
15.72	-40
15.725	-40
15.73	-39
15.735	-38
15.74	-38
15.745	-38
15.75	-38
15.755	-37
15.76	-36
15.765	-36
15.77	-36
15.775	-36
15.78	-35
15.785	-35
15.79	-34
15.795	-34
15.8	-34
15.805	-34
15.81	-33
15.815	-33
15.82	-32
15.825	-32
15.83	-32
15.835	-32
15.84	-31
15.845	-31
15.85	-31
15.855	-30
15.86	-30
15.865	-30
15.87	-30
15.875	-30
15.88	-30
15.885	-30
15.89	-29
15.895	-29
15.9	-29
15.905	-29
15.91	-28
15.915	-28
15.92	-28
15.925	-28
15.93	-28
15.935	-28
15.94	-28
15.945	-28
15.95	-28
15.955	-28
15.96	-28
15.965	-28
15.97	-28
15.975	-28
15.98	-28
15.985	-28
15.99	-28
15.995	-28
16	-29
16.005	-29
16.01	-29
16.015	-29
16.02	-30
16.025	-30
16.03	-30
16.035	-30
16.04	-30
16.045	-30
16.05	-30
16.055	-31
16.06	-31
16.065	-31
16.07	-32
16.075	-32
16.08	-32
16.085	-32
16.09	-33
16.095	-33
16.1	-34
16.105	-34
16.11	-34
16.115	-34
16.12	-35
16.125	-35
16.13	-36
16.135	-36
16.14	-36
16.145	-36
16.15	-37
16.155	-37
16.16	-38
16.165	-38
16.17	-38
16.175	-38
16.18	-39
16.185	-40
16.19	-40
16.195	-40
16.2	-40
16.205	-41
16.21	-41
16.215	-42
16.22	-42
16.225	-42
16.23	-42
16.235	-43
16.24	-44
16.245	-44
16.25	-44
16.255	-44
16.26	-44
16.265	-45
16.27	-45
16.275	-46
16.28	-46
16.285	-46
16.29	-46
16.295	-46
16.3	-47
16.305	-47
16.31	-48
16.315	-48
16.32	-48
16.325	-48
16.33	-48
16.335	-48
16.34	-48
16.345	-48
16.35	-49
16.355	-49
16.36	-49
16.365	-49
16.37	-49
16.375	-49
16.38	-50
16.385	-50
16.39	-50
16.395	-50
16.4	-50
16.405	-50
16.41	-50
16.415	-50
16.42	-50
16.425	-50
16.43	-50
16.435	-50
16.44	-50
16.445	-49
16.45	-49
16.455	-49
16.46	-49
16.465	-49
16.47	-48
16.475	-48
16.48	-48
16.485	-48
16.49	-48
16.495	-48
16.5	-48
16.505	-48
16.51	-47
16.515	-47
16.52	-46
16.525	-46
16.53	-46
16.535	-46
16.54	-46
16.545	-45
16.55	-45
16.555	-45
16.56	-44
16.565	-44
16.57	-44
16.575	-44
16.58	-43
16.585	-43
16.59	-42
16.595	-42
16.6	-42
16.605	-42
16.61	-41
16.615	-41
16.62	-40
16.625	-40
16.63	-40
16.635	-40
16.64	-39
16.645	-39
16.65	-38
16.655	-38
16.66	-38
16.665	-38
16.67	-37
16.675	-37
16.68	-36
16.685	-36
16.69	-36
16.695	-36
16.7	-35
16.705	-35
16.71	-34
16.715	-34
16.72	-34
16.725	-34
16.73	-34
16.735	-33
16.74	-33
16.745	-32
16.75	-32
16.755	-32
16.76	-32
16.765	-32
16.77	-32
16.775	-31
16.78	-31
16.785	-31
16.79	-30
16.795	-30
16.8	-30
16.805	-30
16.81	-30
16.815	-30
16.82	-30
16.825	-30
16.83	-30
16.835	-30
16.84	-30
16.845	-30
16.85	-30
16.855	-30
16.86	-30
16.865	-30
16.87	-30
16.875	-30
16.88	-30
16.885	-30
16.89	-30
16.895	-30
16.9	-30
16.905	-30
16.91	-30
16.915	-30
16.92	-30
16.925	-30
16.93	-30
16.935	-30
16.94	-31
16.945	-31
16.95	-31
16.955	-31
16.96	-32
16.965	-32
16.97	-32
16.975	-32
16.98	-32
16.985	-32
16.99	-33
16.995	-33
17	-34
17.005	-34
17.01	-34
17.015	-34
17.02	-34
17.025	-35
17.03	-35
17.035	-36
17.04	-36
17.045	-36
17.05	-36
17.055	-37
17.06	-37
17.065	-38
17.07	-38
17.075	-38
17.08	-38
17.085	-38
17.09	-39
17.095	-39
17.1	-40
17.105	-40
17.11	-40
17.115	-40
17.12	-41
17.125	-41
17.13	-42
17.135	-42
17.14	-42
17.145	-42
17.15	-43
17.155	-43
17.16	-44
17.165	-44
17.17	-44
17.175	-44
17.18	-44
17.185	-45
17.19	-45
17.195	-45
17.2	-46
17.205	-46
17.21	-46
17.215	-46
17.22	-46
17.225	-46
17.23	-47
17.235	-47
17.24	-47
17.245	-47
17.25	-48
17.255	-48
17.26	-48
17.265	-48
17.27	-48
17.275	-48
17.28	-48
17.285	-48
17.29	-48
17.295	-48
17.3	-48
17.305	-48
17.31	-48
17.315	-48
17.32	-48
17.325	-48
17.33	-48
17.335	-48
17.34	-48
17.345	-48
17.35	-48
17.355	-48
17.36	-48
17.365	-48
17.37	-48
17.375	-48
17.38	-48
17.385	-48
17.39	-48
17.395	-47
17.4	-47
17.405	-47
17.41	-46
17.415	-46
17.42	-46
17.425	-46
17.43	-46
17.435	-46
17.44	-46
17.445	-45
17.45	-45
17.455	-44
17.46	-44
17.465	-44
17.47	-44
17.475	-44
17.48	-44
17.485	-43
17.49	-43
17.495	-42
17.5	-42
17.505	-42
17.51	-42
17.515	-41
17.52	-41
17.525	-40
17.53	-40
17.535	-40
17.54	-40
17.545	-40
17.55	-39
17.555	-39
17.56	-38
17.565	-38
17.57	-38
17.575	-38
17.58	-37
17.585	-37
17.59	-37
17.595	-36
17.6	-36
17.605	-36
17.61	-36
17.615	-35
17.62	-35
17.625	-35
17.63	-34
17.635	-34
17.64	-34
17.645	-34
17.65	-34
17.655	-33
17.66	-33
17.665	-33
17.67	-32
17.675	-32
17.68	-32
17.685	-32
17.69	-32
17.695	-32
17.7	-32
17.705	-32
17.71	-32
17.715	-31
17.72	-31
17.725	-31
17.73	-31
17.735	-31
17.74	-31
17.745	-31
17.75	-30
17.755	-30
17.76	-30
17.765	-30
17.77	-30
17.775	-30
17.78	-30
17.785	-30
17.79	-30
17.795	-30
17.8	-30
17.805	-31
17.81	-31
17.815	-31
17.82	-31
17.825	-31
17.83	-31
17.835	-31
17.84	-32
17.845	-32
17.85	-32
17.855	-32
17.86	-32
17.865	-32
17.87	-32
17.875	-32
17.88	-33
17.885	-33
17.89	-33
17.895	-34
17.9	-34
17.905	-34
17.91	-34
17.915	-34
17.92	-34
17.925	-35
17.93	-35
17.935	-35
17.94	-36
17.945	-36
17.95	-36
17.955	-36
17.96	-36
17.965	-37
17.97	-37
17.975	-38
17.98	-38
17.985	-38
17.99	-38
17.995	-39
18	-39
18.005	-39
18.01	-40
18.015	-40
18.02	-40
18.025	-40
18.03	-41
18.035	-41
18.04	-41
18.045	-42
18.05	-42
18.055	-42
18.06	-42
18.065	-42
18.07	-43
18.075	-43
18.08	-44
18.085	-44
18.09	-44
18.095	-44
18.1	-44
18.105	-44
18.11	-45
18.115	-45
18.12	-45
18.125	-46
18.13	-46
18.135	-46
18.14	-46
18.145	-46
18.15	-46
18.155	-46
18.16	-46
18.165	-46
18.17	-47
18.175	-47
18.18	-47
18.185	-47
18.19	-47
18.195	-47
18.2	-47
18.205	-47
18.21	-47
18.215	-47
18.22	-48
18.225	-48
18.23	-48
18.235	-48
18.24	-48
18.245	-47
18.25	-47
18.255	-47
18.26	-47
18.265	-47
18.27	-47
18.275	-47
18.28	-47
18.285	-47
18.29	-46
18.295	-46
18.3	-46
18.305	-46
18.31	-46
18.315	-46
18.32	-46
18.325	-46
18.33	-46
18.335	-45
18.34	-45
18.345	-45
18.35	-45
18.355	-44
18.36	-44
18.365	-44
18.37	-44
18.375	-44
18.38	-44
18.385	-43
18.39	-43
18.395	-42
18.4	-42
18.405	-42
18.41	-42
18.415	-42
18.42	-41
18.425	-41
18.43	-41
18.435	-40
18.44	-40
18.445	-40
18.45	-40
18.455	-40
18.46	-39
18.465	-39
18.47	-38
18.475	-38
18.48	-38
18.485	-38
18.49	-38
18.495	-37
18.5	-37
18.505	-37
18.51	-36
18.515	-36
18.52	-36
18.525	-36
18.53	-36
18.535	-35
18.54	-35
18.545	-35
18.55	-34
18.555	-34
18.56	-34
18.565	-34
18.57	-34
18.575	-34
18.58	-34
18.585	-33
18.59	-33
18.595	-33
18.6	-33
18.605	-32
18.61	-32
18.615	-32
18.62	-32
18.625	-32
18.63	-32
18.635	-32
18.64	-32
18.645	-32
18.65	-32
18.655	-32
18.66	-32
18.665	-32
18.67	-32
18.675	-32
18.68	-32
18.685	-32
18.69	-32
18.695	-32
18.7	-32
18.705	-32
18.71	-32
18.715	-32
18.72	-32
18.725	-32
18.73	-32
18.735	-32
18.74	-32
18.745	-32
18.75	-32
18.755	-32
18.76	-32
18.765	-33
18.77	-33
18.775	-33
18.78	-33
18.785	-34
18.79	-34
18.795	-34
18.8	-34
18.805	-34
18.81	-34
18.815	-34
18.82	-34
18.825	-35
18.83	-35
18.835	-35
18.84	-36
18.845	-36
18.85	-36
18.855	-36
18.86	-36
18.865	-37
18.87	-37
18.875	-37
18.88	-38
18.885	-38
18.89	-38
18.895	-38
18.9	-38
18.905	-39
18.91	-39
18.915	-39
18.92	-40
18.925	-40
18.93	-40
18.935	-40
18.94	-40
18.945	-41
18.95	-41
18.955	-41
18.96	-42
18.965	-42
18.97	-42
18.975	-42
18.98	-42
18.985	-42
18.99	-43
18.995	-43
19	-43
19.005	-44
19.01	-44
19.015	-44
19.02	-44
19.025	-44
19.03	-44
19.035	-44
19.04	-45
19.045	-45
19.05	-45
19.055	-45
19.06	-45
19.065	-46
19.07	-46
19.075	-46
19.08	-46
19.085	-46
19.09	-46
19.095	-46
19.1	-46
19.105	-46
19.11	-46
19.115	-46
19.12	-46
19.125	-46
19.13	-46
19.135	-46
19.14	-46
19.145	-46
19.15	-46
19.155	-46
19.16	-46
19.165	-46
19.17	-46
19.175	-46
19.18	-46
19.185	-46
19.19	-46
19.195	-46
19.2	-46
19.205	-46
19.21	-46
19.215	-46
19.22	-45
19.225	-45
19.23	-45
19.235	-45
19.24	-45
19.245	-44
19.25	-44
19.255	-44
19.26	-44
19.265	-44
19.27	-44
19.275	-44
19.28	-43
19.285	-43
19.29	-43
19.295	-42
19.3	-42
19.305	-42
19.31	-42
19.315	-42
19.32	-42
19.325	-41
19.33	-41
19.335	-41
19.34	-40
19.345	-40
19.35	-40
19.355	-40
19.36	-40
19.365	-40
19.37	-39
19.375	-39
19.38	-39
19.385	-38
19.39	-38
19.395	-38
19.4	-38
19.405	-38
19.41	-37
19.415	-37
19.42	-37
19.425	-36
19.43	-36
19.435	-36
19.44	-36
19.445	-36
19.45	-36
19.455	-35
19.46	-35
19.465	-35
19.47	-35
19.475	-34
19.48	-34
19.485	-34
19.49	-34
19.495	-34
19.5	-34
19.505	-34
19.51	-34
19.515	-34
19.52	-33
19.525	-33
19.53	-33
19.535	-33
19.54	-33
19.545	-33
19.55	-33
19.555	-32
19.56	-32
19.565	-32
19.57	-32
19.575	-32
19.58	-32
19.585	-32
19.59	-32
19.595	-32
19.6	-32
19.605	-32
19.61	-32
19.615	-32
19.62	-32
19.625	-32
19.63	-32
19.635	-33
19.64	-33
19.645	-33
19.65	-33
19.655	-33
19.66	-33
19.665	-33
19.67	-34
19.675	-34
19.68	-34
19.685	-34
19.69	-34
19.695	-34
19.7	-34
19.705	-34
19.71	-34
19.715	-34
19.72	-35
19.725	-35
19.73	-35
19.735	-35
19.74	-36
19.745	-36
19.75	-36
19.755	-36
19.76	-36
19.765	-36
19.77	-37
19.775	-37
19.78	-37
19.785	-38
19.79	-38
19.795	-38
19.8	-38
19.805	-38
19.81	-38
19.815	-39
19.82	-39
19.825	-39
19.83	-40
19.835	-40
19.84	-40
19.845	-40
19.85	-40
19.855	-40
19.86	-41
19.865	-41
19.87	-41
19.875	-42
19.88	-42
19.885	-42
19.89	-42
19.895	-42
19.9	-42
19.905	-42
19.91	-43
19.915	-43
19.92	-43
19.925	-44
19.93	-44
19.935	-44
19.94	-44
19.945	-44
19.95	-44
19.955	-44
19.96	-44
19.965	-44
19.97	-44
19.975	-45
19.98	-45
19.985	-45
19.99	-45
19.995	-45
20	-45
20.005	-45
